Pedestrian -1 -1 -0.0280395 743 144 862 325 1.84158 0.58154 1.18232 2.11226 1.47299 7.59718 0.234375 0.705785
Car -1 -1 5.10026 488 142 597 220 2.06666 1.70319 4.28331 -1.66908 1.05325 21.0075 5.02409 0.622459
Car -1 -1 2.18433 0 193 121 242 1.46548 1.57519 3.72141 -18.5674 1.95194 24.2512 1.53875 0.437824
Car -1 -1 1.65159 638 176 672 204 1.46548 1.55077 3.60691 2.84335 1.23562 38.5594 1.72625 0.407333
Pedestrian -1 -1 3.12666 58 190 88 253 1.75724 0.609449 0.684276 -15.2751 2.04616 20.357 2.49188 0.377541
Car -1 -1 1.58774 577 173 602 196 1.512 1.6252 3.55099 -0.948807 1.03579 48.4632 1.57 0.348645
Cyclist -1 -1 0.211214 0 170 93 257 1.67677 0.638697 1.78772 -11.4731 1.47563 14.2756 -0.453125 0.348645
Car -1 -1 1.47605 737 174 761 192 1.46548 1.57519 3.60691 11.8375 0.970754 57.5751 1.67938 0.320821
Car -1 -1 1.40268 764 172 798 195 1.48856 1.6 3.66371 11.8531 0.963145 47.3349 1.64813 0.320821
Cyclist -1 -1 4.2182 825 174 923 284 1.57518 0.590698 1.87351 4.18413 1.48387 11.1006 4.57097 0.320821
Car -1 -1 2.93126 448 167 588 227 1.76771 1.67679 4.08717 -2.69258 1.3743 22.0994 2.81347 0.294215
Car -1 -1 3.60377 0 0 1224 370 1.56 1.65079 3.49594 19.8563 0.799217 1.14373 5.10222 0.268941
Pedestrian -1 -1 1.98446 813 168 861 263 1.81302 0.658971 0.739879 4.61721 1.58189 14.0019 2.29784 0.268941
Car -1 -1 2.33754 503 156 626 216 1.76771 1.6252 3.96142 -1.16314 1.05943 22.6084 2.28875 0.268941
Car -1 -1 -1.28785 0 0 1224 370 1.60952 1.6 3.72141 4.89053 1.43542 0.229048 0.171875 0.268941
Car -1 -1 1.93223 569 175 608 196 1.44276 1.6 3.55099 -1.01612 1.1154 50.0728 1.91375 0.268941
Car -1 -1 1.67637 759 163 789 186 1.53581 1.6252 3.55099 11.7777 0.395231 48.7436 1.91375 0.268941
Car -1 -1 0.198491 0 0 1224 370 1.58457 1.65079 4.08717 -0.0203136 1.58594 -0.229737 0 0.268941
Car -1 -1 1.23603 0 0 1224 370 1.60952 1.70319 4.15153 19.4945 1.10185 0.184732 2.78222 0.268941
Car -1 -1 1.81318 727 161 756 180 1.512 1.6252 3.60691 11.8203 -0.0441741 60.3274 2.0075 0.245085
Car -1 -1 2.83048 599 174 671 203 1.60952 1.65079 3.66371 1.75037 1.26751 39.5837 2.87597 0.245085
Car -1 -1 2.94798 0 176 9 216 1.66061 1.57519 3.49594 -28.5611 1.48386 31.0188 2.21063 0.245085
Car -1 -1 2.6028 706 176 757 194 1.48856 1.65079 3.83954 10.6239 1.16205 58.7976 2.78222 0.245085
Cyclist -1 -1 4.83607 637 144 678 248 1.73 0.521289 1.76 1.00585 1.13364 12.7809 4.91472 0.2227
Car -1 -1 1.59759 89 190 150 240 1.53581 1.6252 3.78001 -16.7707 1.91323 24.6398 1.0075 0.201813
Car -1 -1 2.61394 729 173 788 198 1.63487 1.6 3.66371 10.6396 1.19069 48.7459 2.82909 0.201813
Car -1 -1 1.57361 577 171 600 191 1.46548 1.57519 3.49594 -1.08824 0.803019 51.5393 1.55438 0.201813
Car -1 -1 2.444 681 158 833 221 1.512 1.6252 3.78001 4.08465 0.982262 18.7198 2.65722 0.201813
Car -1 -1 4.76954 557 155 625 223 1.71332 1.65079 4.21691 -0.26475 1.08289 20.0686 4.75847 0.201813
Car -1 -1 2.97591 0 180 20 220 1.48856 1.55077 3.66371 -25.4879 1.47272 27.8329 2.24188 0.201813
Car -1 -1 -1.59472 0 0 1224 370 1.60952 1.67679 4.21691 1.3643 1.65341 -0.161304 -0.140625 0.182426
Car -1 -1 2.82352 545 176 602 199 1.60952 1.6 3.72141 -2.16186 1.31136 50.0062 2.78222 0.182426
Car -1 -1 1.7543 639 160 680 188 1.512 1.6252 3.72141 3.21639 0.417168 40.0899 1.83563 0.182426
Cyclist -1 -1 3.03218 544 141 615 210 1.70318 0.628795 1.73271 -0.607127 0.735704 17.8381 3.00097 0.182426
Car -1 -1 3.31172 298 195 460 262 1.60952 1.67679 3.83954 -5.81329 2.03577 18.7095 3.01659 0.182426
Pedestrian -1 -1 -1.0823 833 173 869 243 1.70318 0.619046 0.684276 6.22661 1.5402 17.813 -0.75 0.182426
Car -1 -1 4.46507 0 0 1224 370 1.53581 1.6 3.78001 -1.57267 1.63027 -0.231981 2.95409 0.164516
Car -1 -1 1.64647 664 178 698 206 1.4204 1.57519 3.78001 4.25645 1.3175 38.4304 1.7575 0.164516
Car -1 -1 3.7573 1077 199 1224 370 1.512 1.52673 3.33585 4.95322 1.68084 4.37184 4.57097 0.164516
Cyclist -1 -1 5.42349 0 169 4 254 1.70318 0.529498 1.70585 -13.7434 1.48682 15.0573 4.69597 0.164516
Car -1 -1 2.90311 545 177 599 198 1.53581 1.6 3.60691 -2.29589 1.29348 51.3517 2.86034 0.164516
Car -1 -1 5.13957 0 184 54 225 1.3767 1.6 3.55099 -22.4163 1.55478 26.5489 4.44597 0.164516
Car -1 -1 -0.773021 0 0 1224 370 1.53581 1.6252 3.83954 0.606058 1.35377 0.664186 -0.21875 0.164516
Cyclist -1 -1 -1.20359 1140 181 1224 370 1.70318 0.669348 1.81587 5.8522 1.7125 6.59533 -0.5 0.164516
Car -1 -1 1.40506 0 0 1224 370 1.53581 1.6252 4.0238 15.3297 1.43745 -0.206019 2.96972 0.148047
Cyclist -1 -1 0.292077 653 138 741 228 1.78492 0.513207 1.70585 1.90285 0.951254 14.498 0.421875 0.148047
Cyclist -1 -1 3.67921 216 178 373 299 1.67677 0.820103 1.96342 -4.51148 1.6501 10.3895 3.28222 0.148047
Pedestrian -1 -1 3.20762 1212 126 1224 199 1.87058 0.572524 0.532915 16.1644 0.493171 18.354 3.92284 0.148047
Pedestrian -1 -1 -0.841062 744 117 802 224 1.78492 0.572524 0.825395 2.96179 0.732679 12.3635 -0.609375 0.148047
Car -1 -1 2.8065 414 155 573 224 1.85255 1.70319 4.28331 -3.20115 1.1869 20.6951 2.65722 0.148047
Pedestrian -1 -1 5.29196 0 179 55 263 1.65078 0.690596 0.763365 -11.657 1.6275 14.218 4.61784 0.148047
Pedestrian -1 -1 0.028664 560 140 602 231 1.87058 0.521289 0.878628 -0.464364 1.05003 14.7791 0 0.148047
Car -1 -1 1.63103 1200 158 1224 225 1.82382 1.65079 3.78001 19.2661 1.22208 21.3053 2.36034 0.148047
Car -1 -1 5.21613 253 205 449 314 1.3767 1.50306 3.44174 -3.9505 1.85958 11.6621 4.89909 0.132964
Car -1 -1 1.21349 0 0 1224 370 1.48856 1.6252 3.9 13.6585 1.02124 -0.276748 2.78222 0.132964
Pedestrian -1 -1 4.31902 976 237 1089 370 1.52672 0.546306 0.585293 3.2461 1.98849 5.39292 4.83659 0.132964
Car -1 -1 3.1279 178 203 344 275 1.60952 1.6252 3.72141 -8.82176 2.27113 18.386 2.68847 0.132964
Car -1 -1 1.5387 0 0 1224 370 1.512 1.6252 4.08717 -25.133 2.33381 0.0541267 -0.015625 0.132964
Pedestrian -1 -1 3.97317 245 167 303 261 1.75724 0.638697 0.812598 -6.35787 1.50757 13.6483 3.54784 0.132964
Car -1 -1 3.20761 0 191 116 238 1.46548 1.65079 4.0238 -19.4727 1.86368 24.7011 2.54784 0.132964
Pedestrian -1 -1 -0.215089 515 153 549 241 1.81302 0.513207 0.613381 -1.51579 1.25045 14.8878 -0.3125 0.119203
Pedestrian -1 -1 2.9136 1213 131 1224 254 1.84158 0.609449 0.763365 10.0874 1.10908 11.0343 3.64159 0.119203
Car -1 -1 4.62686 528 143 604 214 1.74031 1.73001 4.63136 -1.16148 0.841757 19.6893 4.57097 0.119203
Car -1 -1 1.74922 1128 177 1224 252 1.58457 1.70319 4.28331 14.3443 1.52897 17.139 2.43847 0.119203
Car -1 -1 1.77888 949 178 1056 246 1.46548 1.6 3.49594 9.79657 1.42966 17.263 2.28875 0.119203
Car -1 -1 1.9216 453 156 570 234 1.88172 1.73001 4.48887 -2.36959 1.29469 19.4922 1.80438 0.119203
Cyclist -1 -1 3.01397 694 144 765 213 1.73 0.6 1.73271 3.20504 0.834063 18.0776 3.18847 0.119203
Car -1 -1 1.40743 784 176 819 198 1.44276 1.6252 3.83954 13.1362 1.16887 47.0839 1.67938 0.119203
Cyclist -1 -1 -0.658535 1016 124 1143 232 1.73 0.590698 1.76 7.84048 0.835395 11.6849 -0.078125 0.119203
Car -1 -1 -0.645915 522 150 663 217 1.88172 1.70319 4.08717 -0.267562 1.03753 21.5273 -0.65625 0.119203
Cyclist -1 -1 5.14162 605 143 653 217 1.78492 0.529498 1.76 0.674655 0.894038 18.0739 5.18034 0.119203
Car -1 -1 3.25171 0 178 27 223 1.48856 1.65079 3.96142 -23.0467 1.40719 25.0788 2.51659 0.119203
Car -1 -1 1.83141 757 165 793 187 1.512 1.6 3.72141 12.228 0.46658 50.3447 2.07 0.119203
Car -1 -1 4.82502 779 192 877 273 1.46548 1.6252 3.72141 5.00328 1.76891 15.4595 5.13347 0.106691
Cyclist -1 -1 -0.284545 487 168 586 266 1.70318 0.658971 1.6794 -1.22995 1.49931 12.983 -0.375 0.106691
