Car -1 -1 2.05249 275 174 345 203 1.44276 1.65079 4.0238 -15.4362 1.52121 37.4486 1.66375 0.867036
Car -1 -1 2.28427 0 172 11 258 1.512 1.67679 4.48887 -15.1191 1.51405 15.1133 1.5075 0.731059
Car -1 -1 2.9373 558 182 617 204 1.512 1.67679 4.15153 -1.60872 2.29112 54.1348 2.90722 0.5
Car -1 -1 3.13233 556 181 609 204 1.66061 1.67679 4.0238 -2.05964 2.35722 55.226 3.09472 0.437824
Car -1 -1 2.75973 769 180 832 201 1.46548 1.67679 4.21691 14.324 2.07514 54.1333 3.01659 0.437824
Car -1 -1 -0.00142083 184 187 296 225 1.44276 1.6252 4.08717 -15.431 2.10501 30.3362 -0.46875 0.437824
Car -1 -1 2.25729 0 178 132 235 1.44276 1.50306 3.33585 -15.315 1.60873 20.2891 1.61688 0.407333
Car -1 -1 0.473541 102 185 190 213 1.60952 1.65079 4.08717 -27.4744 2.34917 42.8737 -0.09375 0.407333
Car -1 -1 0.721416 0 177 94 232 1.44276 1.6 3.78001 -16.6049 1.56898 19.8474 0.03125 0.407333
Car -1 -1 0.4942 112 187 201 213 1.53581 1.70319 4.28331 -27.4735 2.42053 43.8989 -0.0625 0.407333
Car -1 -1 -0.378685 519 182 569 199 1.44276 1.65079 4.08717 -5.75802 2.32824 63.8017 -0.46875 0.377541
Car -1 -1 2.91201 772 182 836 203 1.53581 1.70319 4.28331 14.2505 2.24533 52.9832 3.17284 0.377541
Car -1 -1 0.47624 182 183 258 207 1.58457 1.70319 4.28331 -26.3913 2.34074 49.0198 -0.015625 0.348645
Car -1 -1 0.642094 0 191 40 231 1.56 1.70319 4.28331 -26.3936 2.34718 29.8187 -0.078125 0.348645
Car -1 -1 3.17129 240 184 376 230 1.56 1.75726 4.48887 -11.0367 2.00591 26.6843 2.78222 0.320821
Car -1 -1 4.3661 0 0 1242 375 1.56 1.65079 4.0238 -26.3967 2.40316 0.188192 2.81347 0.320821
Car -1 -1 0.355421 389 185 464 209 1.46548 1.67679 4.21691 -11.4084 2.25406 45.2428 0.109375 0.294215
Car -1 -1 3.86009 224 180 288 202 1.58457 1.70319 4.28331 -26.6464 2.1816 54.5277 3.40722 0.294215
Car -1 -1 3.5267 406 185 474 208 1.48856 1.70319 4.21691 -11.4727 2.35517 49.082 3.29784 0.294215
Car -1 -1 0.683921 92 186 185 214 1.512 1.67679 4.35076 -26.9668 2.30408 41.4057 0.109375 0.294215
Car -1 -1 2.42252 885 174 1017 219 1.66061 1.73001 4.63136 13.2158 1.71515 27.8959 2.86034 0.294215
Car -1 -1 1.72293 1045 177 1152 245 1.512 1.67679 4.21691 12.6112 1.64646 18.4938 2.31347 0.294215
Car -1 -1 1.43216 585 181 608 199 1.44276 1.57519 3.9 -1.15606 2.25858 64.1214 1.41375 0.294215
Car -1 -1 0.455439 170 183 250 208 1.58457 1.70319 4.35076 -26.3916 2.32805 47.8057 -0.046875 0.294215
Car -1 -1 0.400931 434 183 493 203 1.46548 1.67679 4.21691 -11.4059 2.35007 56.7625 0.203125 0.268941
Car -1 -1 2.56792 513 184 562 201 1.44276 1.65079 4.15153 -6.39617 2.49333 64.9578 2.46972 0.268941
Car -1 -1 3.38061 411 184 477 207 1.512 1.67679 4.15153 -11.4067 2.35185 50.0421 3.15722 0.268941
Car -1 -1 2.48275 142 187 262 228 1.46548 1.6252 4.08717 -16.3254 2.08935 29.179 1.97625 0.268941
Car -1 -1 0.403784 254 182 317 202 1.56 1.70319 4.41928 -26.5215 2.36373 59.2601 -0.015625 0.268941
Car -1 -1 0.382162 437 184 495 203 1.46548 1.67679 4.21691 -11.4712 2.38851 58.0421 0.1875 0.268941
Car -1 -1 0.0728138 555 181 603 198 1.4204 1.65079 4.15153 -2.69953 2.25202 65.336 0.03125 0.268941
Car -1 -1 -0.147429 846 177 934 206 1.46548 1.67679 4.08717 14.5629 1.70507 37.6279 0.21875 0.268941
Car -1 -1 1.04344 944 170 1039 212 1.58457 1.6 3.9 15.2842 1.49675 29.0553 1.52313 0.245085
Car -1 -1 1.62513 800 179 825 200 1.53581 1.65079 4.21691 15.7359 2.06414 55.8083 1.89813 0.245085
Car -1 -1 3.83282 427 180 487 202 1.48856 1.67679 4.21691 -11.1549 2.10013 52.9907 3.62597 0.245085
Car -1 -1 -0.41445 506 181 565 203 1.512 1.65079 4.0238 -5.37488 2.19634 52.9224 -0.515625 0.245085
Car -1 -1 4.79697 512 177 536 195 1.48856 1.6252 4.15153 -7.10922 1.86884 60.6067 4.68034 0.245085
Car -1 -1 2.96027 598 177 657 198 1.66061 1.73001 4.55956 1.51449 2.0664 59.0025 2.98534 0.245085
Car -1 -1 3.65154 419 180 485 203 1.53581 1.70319 4.28331 -11.1547 2.13141 51.3903 3.43847 0.245085
Car -1 -1 2.09767 498 180 543 200 1.46548 1.65079 4.15153 -6.91944 2.05754 56.6327 1.97625 0.245085
Car -1 -1 4.91128 673 174 709 196 1.512 1.70319 4.35076 5.87603 1.62259 51.3822 5.02409 0.245085
Car -1 -1 2.28543 0 0 1242 375 1.60952 1.67679 4.15153 7.01083 0.936691 0.901578 3.68847 0.245085
Car -1 -1 2.85509 162 184 322 241 1.60952 1.70319 4.35076 -11.8937 2.03134 23.5499 2.39159 0.245085
Cyclist -1 -1 3.56792 0 167 66 233 1.67677 0.6 1.73271 -15.359 1.53653 18.8719 2.89159 0.2227
Car -1 -1 2.01615 244 183 305 210 1.512 1.70319 4.0238 -19.975 2.15208 43.2599 1.58563 0.2227
Car -1 -1 2.04328 506 178 546 197 1.512 1.65079 4.28331 -7.17293 2.04883 62.6473 1.92938 0.2227
Car -1 -1 0.395873 247 182 311 202 1.58457 1.70319 4.41928 -26.5219 2.33895 58.0462 -0.03125 0.2227
Car -1 -1 1.22325 969 168 1059 214 1.60952 1.6252 4.15153 15.2834 1.44376 27.4558 1.72625 0.2227
Car -1 -1 0.690873 281 185 335 203 1.46548 1.67679 4.35076 -26.3207 2.62261 63.0976 0.296875 0.2227
Car -1 -1 1.30247 493 180 524 198 1.46548 1.6 3.9 -8.70654 2.11097 62.2705 1.16375 0.2227
Car -1 -1 -0.490873 506 182 563 203 1.48856 1.65079 4.0238 -5.63755 2.25356 54.5879 -0.59375 0.2227
Car -1 -1 3.70252 158 181 240 206 1.58457 1.73001 4.35076 -26.5912 2.1495 46.8476 3.18847 0.2227
Car -1 -1 0.319746 452 183 504 201 1.46548 1.67679 4.08717 -11.47 2.4427 63.2277 0.140625 0.201813
Car -1 -1 4.98554 644 171 675 190 1.512 1.6252 4.0238 4.34101 1.42768 61.5028 5.05534 0.201813
Car -1 -1 1.35683 0 0 1242 375 1.58457 1.65079 4.0238 19.6943 1.43692 -0.198419 2.92284 0.201813
Car -1 -1 1.89091 597 184 631 208 1.74031 1.57519 3.83954 0.44789 2.70693 57.0853 1.89813 0.201813
Car -1 -1 3.75183 401 180 470 204 1.46548 1.65079 4.21691 -11.2887 1.97771 46.9116 3.51659 0.201813
Car -1 -1 1.72447 505 179 533 198 1.46548 1.6252 4.15153 -7.17405 1.99979 57.8476 1.60125 0.201813
Car -1 -1 3.1914 272 188 389 230 1.512 1.70319 4.21691 -10.903 2.1705 28.5368 2.82909 0.201813
Car -1 -1 1.09192 632 173 669 191 1.48856 1.57519 3.72141 3.44788 1.53792 60.6077 1.14813 0.201813
Car -1 -1 4.11687 663 170 718 194 1.58457 1.67679 4.21691 5.55396 1.44927 49.6616 4.22722 0.201813
Car -1 -1 3.77162 233 179 298 201 1.60952 1.73001 4.35076 -26.5241 2.15673 55.7421 3.32909 0.201813
Car -1 -1 1.40824 695 163 740 194 1.58457 1.67679 4.0238 5.68068 1.10884 38.2104 1.55438 0.201813
Car -1 -1 1.42481 655 173 685 196 1.60952 1.67679 4.0238 4.59718 1.69727 54.9019 1.5075 0.182426
Car -1 -1 1.69942 500 177 529 198 1.48856 1.6252 4.08717 -7.17561 1.88444 55.0345 1.57 0.182426
Car -1 -1 0.40905 309 185 408 219 1.46548 1.65079 3.96142 -11.3553 2.075 32.8299 0.078125 0.182426
Car -1 -1 1.26795 482 178 517 197 1.46548 1.6252 4.0238 -8.7093 1.91055 57.0864 1.11688 0.182426
Car -1 -1 -0.307308 510 181 565 201 1.48856 1.6252 3.9 -5.57236 2.17141 56.1229 -0.40625 0.182426
Car -1 -1 3.77009 1213 185 1242 375 1.53581 1.6252 3.9 6.38816 1.65264 4.65925 4.68034 0.182426
Car -1 -1 -1.48205 0 0 1242 375 1.56 1.6252 4.0238 18.2997 1.29715 0.189256 0.0625 0.182426
Car -1 -1 5.24426 269 170 321 193 1.58457 1.67679 3.9 -22.7956 1.43766 52.5486 4.83659 0.182426
Car -1 -1 1.8431 340 179 372 198 1.53581 1.6 3.9 -21.7707 2.11286 62.2077 1.5075 0.164516
Car -1 -1 1.83065 251 181 296 208 1.512 1.6 3.72141 -20.6157 2.07345 44.4186 1.39813 0.164516
Car -1 -1 3.59144 449 183 500 201 1.46548 1.6252 4.0238 -11.602 2.43269 62.1361 3.40722 0.164516
Car -1 -1 0.71671 645 169 702 194 1.66061 1.6 3.96142 4.5281 1.43907 51.0079 0.804375 0.164516
Car -1 -1 3.7344 445 179 501 198 1.48856 1.67679 4.35076 -11.2866 2.02482 59.646 3.54784 0.164516
Car -1 -1 4.69197 548 180 635 264 1.46548 1.57519 3.66371 -0.396838 1.64994 14.9014 4.66472 0.164516
Car -1 -1 1.31001 487 176 519 197 1.46548 1.55077 3.83954 -8.20245 1.79166 55.5533 1.16375 0.164516
Car -1 -1 3.50127 604 176 659 195 1.56 1.70319 4.28331 1.89854 1.87848 60.2186 3.53222 0.164516
Car -1 -1 1.67312 809 179 838 201 1.48856 1.65079 4.08717 15.8006 1.98664 53.0514 1.96063 0.164516
Car -1 -1 -0.519644 506 181 559 199 1.46548 1.67679 4.15153 -6.46565 2.19717 61.1207 -0.625 0.164516
Car -1 -1 1.06101 628 180 673 203 1.63487 1.65079 4.0238 3.06822 2.20494 54.0687 1.11688 0.164516
Car -1 -1 4.90612 0 0 1242 375 1.512 1.6 3.83954 -11.781 2.27349 0.186116 3.37597 0.148047
Car -1 -1 1.03264 647 174 695 197 1.63487 1.67679 4.15153 4.59759 1.74807 53.8848 1.11688 0.148047
Car -1 -1 1.84893 249 180 293 203 1.46548 1.6252 3.96142 -22.602 1.99072 48.3825 1.41375 0.148047
Car -1 -1 2.66335 167 184 282 222 1.46548 1.6252 4.15153 -16.6459 2.01865 31.4199 2.17938 0.148047
Car -1 -1 1.18921 709 164 775 202 1.60952 1.6 3.83954 5.86975 1.25274 32.3168 1.36688 0.148047
Car -1 -1 0.146309 394 182 467 208 1.53581 1.70319 4.15153 -10.9012 2.15265 44.3496 -0.09375 0.148047
Car -1 -1 2.45872 673 174 744 199 1.512 1.70319 4.35076 6.26096 1.60382 45.3113 2.59472 0.148047
Car -1 -1 1.50196 689 174 722 202 1.512 1.67679 4.0238 5.62082 1.62854 42.3652 1.6325 0.148047
Car -1 -1 -0.260543 511 183 564 201 1.4204 1.6252 4.0238 -5.82493 2.28931 58.7477 -0.359375 0.148047
Car -1 -1 1.80926 377 180 435 216 1.44276 1.55077 3.83954 -8.84531 1.80574 31.6838 1.53875 0.148047
Car -1 -1 0.647312 149 176 233 201 1.53581 1.70319 4.41928 -26.2663 1.74072 45.3834 0.125 0.148047
Car -1 -1 0.670252 88 180 184 209 1.53581 1.70319 4.41928 -26.462 1.98374 40.4489 0.09375 0.148047
Car -1 -1 3.6672 72 182 175 211 1.53581 1.67679 4.41928 -26.3295 2.06715 39.2338 3.07909 0.148047
Car -1 -1 1.17564 0 0 1242 375 1.512 1.70319 4.15153 14.018 2.25733 1.39443 2.62597 0.148047
Car -1 -1 1.40039 584 176 609 192 1.44276 1.65079 3.96142 -1.16103 1.76624 65.9901 1.3825 0.148047
Car -1 -1 2.51115 256 187 354 223 1.46548 1.6252 4.0238 -14.0177 2.20722 33.4598 2.11688 0.148047
Car -1 -1 -0.178677 308 187 401 219 1.4204 1.65079 4.08717 -12.4741 2.18854 35.3891 -0.515625 0.148047
Car -1 -1 4.93097 580 180 614 204 1.68676 1.6252 4.21691 -0.837664 2.23637 52.9775 4.91472 0.148047
Car -1 -1 1.94121 248 178 297 202 1.46548 1.6 3.78001 -21.8981 1.82306 47.0475 1.5075 0.132964
Car -1 -1 0.0757977 573 182 626 204 1.60952 1.6252 3.9 -0.713257 2.39461 55.6111 0.0625 0.132964
Car -1 -1 -0.199075 358 184 410 201 1.44276 1.67679 4.08717 -19.5833 2.46497 62.9094 -0.5 0.132964
Car -1 -1 1.97604 240 182 297 213 1.63487 1.65079 3.78001 -19.5883 2.24155 41.6681 1.53875 0.132964
