Car -1 -1 1.83672 331 201 430 270 1.44276 1.52673 3.44174 -5.70804 2.24288 18.3695 1.53875 0.914901
Car -1 -1 0.495128 640 176 700 200 1.48856 1.55077 3.60691 4.01348 1.76251 47.6821 0.578125 0.851953
Car -1 -1 -0.818799 968 168 1242 375 1.4204 1.55077 3.9 4.91719 1.3972 5.24576 -0.09375 0.835484
Car -1 -1 2.70267 771 174 1149 301 1.63487 1.73001 4.48887 4.73225 1.65543 10.1751 3.12597 0.817575
Car -1 -1 1.75664 443 194 498 236 1.48856 1.50306 3.38838 -5.45099 2.39555 28.7121 1.57 0.754915
Car -1 -1 1.76564 404 200 473 251 1.4204 1.55077 3.55099 -5.50829 2.38256 23.6765 1.53875 0.731059
Car -1 -1 1.25188 869 178 905 198 1.53581 1.6 3.78001 22.2678 2.01707 57.9064 1.61688 0.468791
Car -1 -1 1.60794 497 189 528 217 1.48856 1.65079 4.15153 -5.57078 2.48676 41.9823 1.47625 0.437824
Car -1 -1 2.60615 833 175 887 196 1.60952 1.67679 3.83954 20.6004 1.86692 59.3201 2.93847 0.407333
Car -1 -1 1.64056 863 170 887 188 1.48856 1.6 3.78001 22.1286 1.28579 60.0317 1.99188 0.407333
Car -1 -1 5.08086 620 182 652 199 1.46548 1.6 4.0238 2.49714 2.35216 66.3504 5.11784 0.407333
Car -1 -1 0.376578 0 187 117 246 1.56 1.65079 4.08717 -17.1084 2.01251 21.1795 -0.296875 0.407333
Car -1 -1 2.50252 561 181 609 200 1.53581 1.65079 4.15153 -2.1055 2.37127 64.8263 2.46972 0.377541
Cyclist -1 -1 -0.40616 249 208 360 305 1.52672 0.505251 1.73271 -5.31574 2.18266 12.6662 -0.796875 0.377541
Car -1 -1 1.64833 856 168 880 187 1.53581 1.6252 3.9 22.1935 1.17989 61.6988 1.99188 0.348645
Cyclist -1 -1 5.37199 0 125 77 375 1.78492 0.521289 1.90301 -5.29519 1.45709 5.92438 4.66472 0.348645
Car -1 -1 2.52765 552 182 605 202 1.53581 1.70319 4.35076 -2.55763 2.38328 60.8544 2.48534 0.320821
Car -1 -1 0.291113 362 184 422 204 1.56 1.73001 4.28331 -17.4277 2.52239 57.9763 0 0.320821
Car -1 -1 -0.191161 652 181 709 201 1.56 1.70319 4.21691 5.66711 2.248 57.3995 -0.09375 0.320821
Cyclist -1 -1 5.20599 313 181 385 274 1.78492 0.563648 1.90301 -5.37563 1.98591 15.0537 4.86784 0.294215
Car -1 -1 0.527121 0 191 152 241 1.48856 1.70319 4.21691 -17.5493 2.12743 23.4844 -0.109375 0.294215
Car -1 -1 3.4456 0 0 1242 375 1.48856 1.65079 3.66371 -26.5063 2.71998 1.15429 1.92938 0.294215
Car -1 -1 1.8896 597 184 633 204 1.48856 1.6252 3.96142 0.510362 2.39826 55.9874 1.89813 0.294215
Car -1 -1 -1.41804 1173 146 1242 323 1.46548 1.6252 4.08717 7.79608 1.24615 7.87267 -0.65625 0.294215
Car -1 -1 0.58164 0 182 131 237 1.58457 1.73001 4.21691 -17.4295 1.89266 22.2068 -0.078125 0.294215
Car -1 -1 0.25094 356 184 416 205 1.60952 1.70319 4.21691 -17.5597 2.51414 57.0163 -0.046875 0.268941
Car -1 -1 3.00441 502 186 552 205 1.53581 1.67679 4.0238 -6.931 2.67659 61.1724 2.89159 0.268941
Cyclist -1 -1 -0.254002 95 208 254 336 1.52672 0.546306 1.78772 -5.89899 2.05151 9.87475 -0.78125 0.268941
Car -1 -1 2.14865 542 184 585 204 1.56 1.57519 4.08717 -3.77023 2.54509 59.9588 2.08563 0.268941
Car -1 -1 0.798811 0 192 88 283 1.48856 1.67679 4.21691 -12.1882 1.86557 13.1795 0.0625 0.268941
Car -1 -1 2.43524 832 166 885 184 1.512 1.65079 4.08717 20.9018 0.973258 60.4212 2.76659 0.268941
Car -1 -1 1.95631 616 186 653 206 1.4204 1.65079 3.9 2.11274 2.58944 58.1686 1.99188 0.245085
Car -1 -1 1.2207 514 189 555 213 1.53581 1.67679 3.83954 -5.31275 2.74825 51.0059 1.11688 0.245085
Car -1 -1 -0.0936488 671 180 731 202 1.58457 1.70319 4.28331 6.75769 2.18159 53.3056 0.03125 0.245085
Cyclist -1 -1 5.39826 0 135 155 321 1.67677 0.513207 1.78772 -5.52909 1.33991 7.40953 4.77409 0.245085
Pedestrian -1 -1 2.3083 318 157 346 203 1.81302 0.619046 0.906519 -11.1356 1.2068 29.0456 1.945 0.245085
Car -1 -1 5.47599 0 179 145 239 1.56 1.67679 4.15153 -16.1413 1.78567 21.4451 4.83659 0.2227
Cyclist -1 -1 4.1811 741 143 778 194 1.75724 0.521289 1.62773 5.31852 0.752744 25.5956 4.38347 0.2227
Cyclist -1 -1 3.6884 1150 120 1242 375 1.75724 0.648755 1.87351 3.05589 1.64412 2.54555 4.50847 0.2227
Car -1 -1 0.376285 297 185 373 210 1.56 1.73001 4.28331 -17.628 2.40479 46.5228 0.015625 0.2227
Car -1 -1 3.90425 0 188 93 266 1.56 1.70319 4.15153 -13.9191 1.92196 15.7394 3.18847 0.2227
Cyclist -1 -1 2.95627 998 84 1169 249 1.75724 0.537837 1.55319 5.34647 0.814211 8.22684 3.51659 0.2227
Car -1 -1 -0.915309 861 175 1059 250 1.512 1.67679 4.48887 7.99823 1.57557 16.3779 -0.46875 0.2227
Car -1 -1 1.30851 775 175 808 195 1.56 1.6 3.83954 14.5188 1.76516 57.4684 1.55438 0.2227
Car -1 -1 5.34376 30 166 175 219 1.53581 1.67679 4.0238 -15.76 1.34418 22.7297 4.74284 0.2227
Pedestrian -1 -1 4.68275 324 190 343 242 1.65078 0.554909 0.663223 -9.0334 2.23648 23.6409 4.32097 0.2227
Car -1 -1 4.11073 0 192 89 277 1.46548 1.65079 4.28331 -12.8936 1.89924 14.4593 3.39159 0.2227
Car -1 -1 -0.713198 789 179 840 197 1.46548 1.6252 4.15153 17.3455 2.01664 60.9194 -0.4375 0.201813
Cyclist -1 -1 2.92909 789 122 870 195 1.70318 0.590698 1.78772 5.25703 0.531277 17.2775 3.21972 0.201813
Car -1 -1 5.4175 0 185 125 253 1.58457 1.6 4.15153 -15.5654 1.97005 19.8336 4.75847 0.201813
Car -1 -1 0.742859 0 193 108 262 1.46548 1.6252 4.08717 -14.1728 1.96054 16.6991 0.046875 0.201813
Car -1 -1 1.74479 467 196 516 231 1.46548 1.65079 3.83954 -5.5043 2.63672 34.1779 1.58563 0.201813
Car -1 -1 3.73271 208 183 306 216 1.58457 1.73001 4.21691 -17.8205 2.12043 36.6053 3.28222 0.201813
Car -1 -1 2.15585 817 184 951 239 1.44276 1.65079 4.28331 8.26485 1.81171 21.5615 2.51659 0.201813
Car -1 -1 3.44851 288 186 367 213 1.60952 1.75726 4.28331 -17.6275 2.46561 45.3079 3.07909 0.201813
Car -1 -1 2.53824 488 183 539 202 1.48856 1.67679 4.08717 -8.045 2.39464 60.9873 2.40722 0.201813
Car -1 -1 3.86355 149 186 267 224 1.53581 1.70319 4.35076 -17.1153 2.1259 30.8447 3.36034 0.201813
Car -1 -1 2.80772 655 179 709 199 1.53581 1.67679 4.15153 6.00485 2.13319 59.5749 2.90722 0.201813
Car -1 -1 4.47642 0 0 1242 375 1.512 1.65079 3.9 -27.8452 2.51634 0.18735 2.92284 0.201813
Car -1 -1 3.80241 128 186 254 226 1.56 1.70319 4.35076 -17.1154 2.1253 29.6305 3.28222 0.201813
Car -1 -1 2.07871 550 184 587 203 1.53581 1.6 4.08717 -3.64581 2.66629 65.8402 2.02313 0.201813
Car -1 -1 3.88578 122 187 251 228 1.53581 1.70319 4.41928 -16.7297 2.12278 28.6045 3.36034 0.182426
Car -1 -1 5.06978 777 166 813 185 1.53581 1.70319 4.08717 15.9236 1.05114 61.7016 5.32097 0.182426
Car -1 -1 2.90242 0 0 1242 375 1.512 1.67679 4.0238 0.619339 1.78018 0.508377 3.54784 0.182426
Car -1 -1 3.67856 338 181 403 204 1.58457 1.70319 4.28331 -17.6286 2.26863 53.3104 3.36034 0.182426
Car -1 -1 3.68138 305 182 379 207 1.56 1.67679 4.35076 -17.6295 2.24687 47.7386 3.32909 0.182426
Car -1 -1 4.11828 0 0 1242 375 1.60952 1.70319 4.15153 -30.9282 2.88115 1.65261 2.61034 0.182426
Car -1 -1 2.14442 615 180 654 196 1.48856 1.67679 4.15153 2.42981 2.19026 68.3474 2.17938 0.182426
Car -1 -1 -0.842211 871 180 943 205 1.39837 1.6252 4.0238 17.4073 1.85891 42.1059 -0.453125 0.164516
Pedestrian -1 -1 0.541534 489 161 509 196 1.87058 0.572524 0.851596 -5.85745 1.24994 38.34 0.390625 0.164516
Car -1 -1 2.95317 660 179 720 199 1.53581 1.70319 4.35076 6.2389 2.04252 55.8015 3.06347 0.164516
Car -1 -1 -0.717749 778 175 833 194 1.44276 1.65079 4.15153 15.6757 1.69432 57.4688 -0.453125 0.164516
Car -1 -1 4.22175 0 185 97 253 1.48856 1.67679 4.28331 -14.8893 1.82043 17.7925 3.53222 0.164516
Car -1 -1 -0.766462 629 181 682 202 1.48856 1.65079 4.08717 3.5862 2.21754 55.8003 -0.703125 0.164516
Car -1 -1 2.03308 452 196 520 232 1.4204 1.6 3.72141 -5.57117 2.55472 33.087 1.86688 0.164516
Car -1 -1 -0.344319 598 178 644 194 1.46548 1.6252 4.08717 1.14833 2.05142 68.8668 -0.328125 0.164516
Car -1 -1 3.62218 331 176 400 198 1.56 1.70319 4.41928 -17.5676 1.82795 52.035 3.29784 0.164516
Car -1 -1 2.37228 641 179 696 201 1.53581 1.67679 4.0238 4.42161 2.03565 53.3077 2.45409 0.164516
Car -1 -1 2.98528 686 171 738 187 1.46548 1.6252 4.48887 9.44241 1.35125 66.2368 3.12597 0.164516
Pedestrian -1 -1 3.18206 144 136 174 224 1.81302 0.513207 0.500627 -9.47616 1.07167 15.2077 2.6325 0.164516
Car -1 -1 3.16632 656 181 708 201 1.53581 1.67679 4.08717 5.93091 2.26753 58.3593 3.26659 0.164516
Car -1 -1 4.47082 928 157 986 193 1.68676 1.70319 3.9 17.1336 0.964104 35.715 4.91472 0.148047
Car -1 -1 -1.46166 0 0 1242 375 1.512 1.57519 3.96142 5.17465 1.77411 -0.132664 0.078125 0.148047
Car -1 -1 3.67895 247 182 335 212 1.58457 1.70319 4.28331 -18.0736 2.16992 41.085 3.26659 0.148047
Pedestrian -1 -1 3.40382 326 158 372 250 1.90003 0.554909 0.775387 -5.47396 1.61367 15.2167 3.06347 0.148047
Cyclist -1 -1 3.72719 0 0 1242 375 1.75724 0.521289 1.65337 5.54936 0.862394 0.109626 5.22722 0.148047
Car -1 -1 3.65613 238 178 329 208 1.58457 1.70319 4.21691 -17.6343 1.90146 39.1676 3.23534 0.148047
Car -1 -1 3.6544 0 0 1242 375 1.46548 1.6252 3.9 -29.3856 2.80708 0.683636 2.11688 0.148047
Car -1 -1 1.07351 1039 164 1129 205 1.68676 1.70319 3.66371 20.469 1.34585 31.2958 1.64813 0.148047
Car -1 -1 3.87871 168 184 279 220 1.512 1.67679 4.35076 -17.1817 2.05563 32.1914 3.39159 0.148047
Car -1 -1 2.28819 804 178 848 195 1.4204 1.6252 4.0238 19.8495 1.9954 65.9076 2.57909 0.148047
Car -1 -1 0.713677 462 190 537 218 1.4204 1.67679 4.21691 -6.34242 2.50486 41.5305 0.5625 0.148047
Cyclist -1 -1 4.52748 962 135 991 192 1.78492 0.554909 1.70585 11.9501 0.62056 23.501 4.99284 0.148047
Cyclist -1 -1 1.83107 793 169 803 187 1.65078 0.497418 1.70585 17.3744 1.35013 66.4035 2.08563 0.132964
Car -1 -1 2.16696 530 189 570 208 1.512 1.57519 3.78001 -4.98943 2.93864 61.3574 2.08563 0.132964
