94903
88456
111766
118143
86033
82004
98316
116016
90222
111957
92555
90315
88987
75807
71786
96416
107963
117609
92215
97819
81355
96331
95593
113237
96418
99195
98602
96534
87703
97354
69880
102866
106799
87524
103277
97904
86252
90003
90511
90330
95840
98058
95627
95886
96666
77771
96964
115030
93443
94091
93639
95074
101219
98432
94604
80863
98823
91919
99461
107893
81928
100034
118060
86596
101931
96566
84727
88888
96393
98289
89886
91994
97768
77660
96584
78843
112483
91359
114476
94052
86504
87726
75256
95124
116951
94033
106321
87016
86182
104269
97191
88958
89807
100257
104274
88253
87462
103060
73184
104605
111108
88178
102669
98644
71031
102051
109598
98277
89507
77922
97273
103818
115529
91531
100434
99004
89858
87009
97403
94483
88441
90808
78830
76117
114951
113362
94743
90036
97636
94657
97793
94463
80371
71086
116384
111382
97466
94973
100421
97542
93386
95725
77036
93619
98678
113829
89850
97253
103047
89428
92607
103517
94721
89920
92407
77234
91826
116628
87633
95452
79432
98376
97016
113570
90795
96304
91107
100924
72692
99352
107253
86521
98083
96516
72054
93025
115027
91279
104252
90467
102479
89784
95995
77190
75111
99675
109524
100360
91020
118712
93793
98615
92753
94595
90120
94729
89178
74384
86819
111921
121366
89936
96693
72320
99268
97974
111276
93893
96072
93777
95191
96941
94578
92792
94265
94475
93412
96255
91454
92900
93892
77949
90043
94379
91861
94765
95108
93117
94447
107586
97638
85362
100788
69947
97729
107483
77962
92258
96001
91465
91381
111208
92866
80610
95719
117556
95398
93805
78413
75977
117107
112130
96734
89378
74148
88362
110526
126418
89131
101587
90913
88999
92757
120047
75317
93365
111505
89997
97754
97992
93990
96579
102034
95991
97504
76829
94548
115023
97399
95653
96286
76584
98992
104373
111219
83880
90671
97473
95392
101970
112653
94424
94075
89948
94754
90855
90004
75659
92354
77046
114621
94651
116688
96122
82586
89635
124597
89829
98465
79485
100971
102193
102034
86044
114480
85065
105239
75029
113130
113766
102427
90873
100186
93038
94657
105692
88351
95451
93385
114511
89358
86095
87018
99591
72047
99401
109327
79994
89372
73632
120257
97955
95082
77556
109324
92190
111008
90996
95044
90879
92152
92294
90818
90702
93442
93523
93786
78096
93728
105627
79390
100906
115756
90399
109099
97013
89376
86852
97711
94549
86537
89473
98660
74871
97315
96639
97818
97755
117915
95769
77165
74394
111542
91409
110810
94379
91319
77299
91121
95377
98943
90186
104913
106780
82687
92615
77470
122133
102749
116732
93533
99484
107981
86420
86772
105405
96013
90571
93959
78834
94107
115979
90781
93427
78172
86001
97762
122995
113485
94085
93630
79579
92531
114276
93604
94442
72125
83457
107057
90320
116240
94352
94732
93156
96294
97605
94283
92935
103491
97871
92474
96050
95448
103702
93066
86180
99700
87800
93998
95423
93686
94597
98035
97434
96313
93357
94805
93368
96620
73415
95999
109315
76202
89126
72455
117943
97233
107950
85500
94206
93362
91025
94165
95938
95546
90326
87953
89591
90935
87727
91152
95029
94697
96219
94088
95534
95431
93890
76910
95705
94475
116745
92713
99520
80208
93264
92519
114869
94490
91193
92220
98430
73002
97796
112172
80080
92320
118719
87478
94304
93344
95899
98769
98490
98946
81349
79867
113758
110375
91904
90900
81469
78978
101514
97688
114039
110769
93823
92797
98630
93528
98442
92090
80243
96521
97587
99475
94694
109647
94596
91609
79348
97632
93295
114186
96755
71485
94507
98726
91633
113611
92521
87585
93245
91599
92535
96214
94045
93576
93071
78998
98990
86435
86017
117517
72283
103903
111816
85838
91196
72144
116560
93663
108776
86800
92999
92994
89677
92936
94754
95456
75219
93467
96484
96155
106550
85062
94925
95305
87544
90584
92786
91647
88261
85397
100001
70546
100345
108932
76988
88758
112843
85942
92021
87076
94299
90841
102177
91011
75479
90372
111962
120804
91945
95665
76108
83462
102061
114392
96513
109845
86702
95048
92371
85784
87349
89957
87958
96412
88775
95794
71148
95145
109449
95758
90607
97662
75330
96760
95511
97649
110587
83274
96250
97466
97774
97935
91758
101057
72490
113981
108762
90310
96248
76982
101454
93514
111355
90111
93430
94269
89917
91033
96662
80410
92889
101601
92228
98206
97185
99356
77636
113253
116190
91826
93947
84982
79639
98666
117551
90576
93816
93607
92716
93500
108794
79481
93372
92635
118684
89908
99108
83023
80282
120519
118283
91460
97859
80795
85616
124516
124741
100066
102770
76471
94852
85853
111858
98754
95503
100918
104373
77441
98628
95144
81104
116230
114604
100223
90507
77685
100432
98603
112484
95542
96135
96393
100387
94394
94513
93797
95219
78678
97358
77727
111144
88139
109804
88164
88982
89959
98454
89890
105012
94492
102614
92248
97810
91239
99909
99120
99524
97201
78179
92810
90153
112154
91291
87019
88158
97780
101508
89150
92695
96875
76424
95856
96063
82125
97600
115231
92978
117565
73073
99238
76355
111788
91627
109266
88715
95590
95771
93598
89007
99639
89855
84098
77188
119641
113143
100981
88562
70806
100262
100805
90161
94471
110442
93483
99814
74986
86947
107446
117346
87430
97084
94246
100591
94222
100138
73354
79712
108621
98912
91980
117352
99137
99484
92604
95390
85662
94558
95641
99072
100053
99209
94203
78768
100122
99855
97233
90852
109566
91896
93946
85304
79490
92252
118029
91564
107345
96074
94563
94950
99279
92489
94497
92296
90557
93976
92501
95793
92368
92040
96729
75503
92486
73348
109637
88133
115215
87473
102057
87678
100399
73706
94206
113435
75375
90816
111982
70840
98611
110436
81635
94702
75706
113672
95756
91898
99545
113939
99325
93977
82908
74116
107909
119796
93287
97370
79958
80616
110887
117589
94885
99660
83534
98078
93562
119359
70068
100869
104230
86366
102824
72114
107018
108316
99312
90703
93388
78771
81006
97777
114625
92852
112470
90908
93538
92861
97155
79269
104074
122541
104373
97386
98130
90896
94629
92143
94658
79842
98822
98926
97297
95200
94561
94928
116244
97238
73359
91431
108172
94159
93107
82139
83062
113328
122899
94410
102659
77797
93557
87345
119051
99546
91052
92931
75735
76349
111447
94746
98086
111189
99833
92041
93845
79181
80474
115081
100729
92888
114676
76172
97336
110869
83235
90567
98074
87053
87174
108692
90996
94328
77706
94451
96555
90947
96421
96922
94932
118398
90521
99090
86941
97464
86410
96237
88338
96786
88268
95798
99863
82935
99637
105810
74807
98769
95681
111876
93559
91134
110894
89290
96879
100021
87409
88735
96508
93192
91527
91937
89747
88654
92875
95110
92286
95121
95883
93084
95364
93077
89627
88522
89452
93967
72467
93226
111314
89440
90447
76349
94333
93148
112999
91454
94448
94101
92720
95986
90373
90545
82221
103330
90570
90695
121534
97644
89052
88958
90556
75050
91047
112301
95276
89403
94807
73643
90317
90661
111785
89926
98490
94139
99294
95479
78003
77944
114108
113079
92889
90110
95516
74706
97049
113116
94784
98941
99570
79646
95066
102242
95072
117701
78406
92787
115987
85994
96076
86680
79916
99752
101277
98894
72639
114980
93066
111050
90694
98625
99326
88472
91087
92837
92644
93533
91678
78452
91507
116188
93867
101884
78097
84065
111867
111246
90597
90403
91283
77412
90252
71508
119230
101331
107485
80577
87094
98289
71366
108141
115722
96176
95375
97239
106214
94059
105988
90517
101371
94762
98615
75836
102525
98366
107039
76579
90795
75035
116950
96980
96677
94376
112252
95337
95587
79694
98101
96197
111040
91321
99401
74161
98887
114682
100205
89567
100770
77152
92410
99857
97533
93133
118971
90133
97210
75248
73988
108206
112388
89973
101985
76926
83881
110336
89052
116826
96725
94549
95756
94228
94086
95773
92779
90328
90535
90665
93493
94975
95372
95435
74289
91739
111192
89015
95891
94394
103680
97604
104325
103464
101630
102324
101369
99200
87140
100180
98353
118727
91166
99546
91833
80347
67777
120231
96571
109843
90093
92187
89961
86481
91576
74644
98166
114334
93774
94121
76117
99328
103542
97603
78749
99359
93945
122039
98671
112621
92378
91314
94481
95332
94245
92087
86081
