92610
94473
109038
119632
103382
101393
95665
106889
94778
81687
94792
109699
73407
91969
109499
75458
92807
113575
76941
92965
111648
73260
91672
111695
97889
107494
107756
101993
73689
98167
109098
91748
100425
90604
86324
74768
110267
107694
92833
92476
80523
100597
97754
99997
98269
115005
92533
99426
75472
84700
93292
118917
101680
110497
90851
103363
68986
97632
102960
94896
93804
99441
101296
86848
101222
90639
90071
76619
98049
100615
93803
93574
111951
93284
97104
80824
94937
91637
125353
96183
91448
77624
98012
100948
118531
98287
94530
91435
99674
73245
99052
97569
85981
112986
118273
93980
96098
79985
104971
102628
117239
74881
100360
109650
82619
88435
110791
93543
91604
94401
76973
93720
112462
93191
96464
98940
83210
98126
105998
90500
90571
119261
94828
71513
96275
108502
94761
90781
79701
81047
114446
122628
93159
103792
81951
102247
109716
112034
93577
100247
91443
95458
99498
103893
105214
96343
92459
99595
98028
92184
89918
97263
73879
96453
92209
83260
91205
121783
107880
93399
92365
76242
96627
97060
108089
88587
96516
95905
88119
88211
93490
94984
91232
95558
90759
89946
95279
96525
91099
90062
97490
75684
97804
116734
97138
97254
96390
86977
77986
120412
109896
93158
91270
78880
97539
102150
114849
91697
85784
98196
90044
88465
113875
91922
92236
90502
89670
92232
90462
93398
92523
90648
92587
88275
90487
69521
94229
111891
95668
93047
91246
96659
92169
96789
95948
93925
97440
93906
98771
95781
98378
95484
105259
71297
85399
106907
95824
88269
114204
86711
94026
92885
76266
79000
109238
112584
95784
92245
72634
96633
91497
109407
88615
100276
98338
87123
87827
99474
73097
99828
111377
77652
89901
115798
78193
99814
116278
81438
90020
73616
117016
98705
95357
98131
113179
97217
89337
75710
85138
121637
120332
95973
95914
84037
96860
96854
99842
77411
94996
111991
116896
94171
98202
79496
98721
101483
107573
91892
84537
78046
101555
111885
100498
98716
115975
79506
93692
115121
94030
100718
97995
100200
99650
100380
98361
80407
83234
117362
122952
97948
98327
74832
96290
102004
102916
113538
94891
95677
95850
94144
80739
87290
101988
71852
108181
116827
88145
101008
80146
81660
123950
105037
149161
128201
96932
87475
94723
97042
70954
94506
112903
94715
93544
99496
94410
101756
94644
82772
80273
97580
115349
92433
110066
95176
92109
86768
95172
93744
85488
85483
95825
70482
99891
108598
100389
89615
100401
75211
102734
114848
111957
97493
79468
79976
138585
154863
79109
102925
97884
100620
91941
78841
109617
117302
91069
94966
80378
95423
97269
118219
92293
96214
91453
97493
76231
97064
98531
75488
112419
120505
97455
99473
98015
93361
95157
97828
94282
81172
90965
112560
73878
96174
111063
79365
89370
72831
113247
95534
114534
76262
93930
116446
89599
97259
93213
75219
83841
107341
124000
95089
96881
83337
95829
94463
110960
90445
92882
94456
98535
95682
75331
96158
87432
92383
112594
90623
100389
96475
92944
95985
92640
95028
76663
75079
94364
110063
119978
93453
99112
76580
93230
95281
112342
94147
98740
92188
99669
88826
92917
93188
96700
96544
94377
92273
92724
93402
93816
90545
94751
100888
74864
94011
113502
93799
97031
98198
97701
90073
98371
72405
81819
110047
113460
87788
94648
95019
94636
103445
103868
92753
76414
94703
111674
92433
96488
95533
100157
96355
98648
97913
100056
100889
102708
99550
103251
95682
123085
118218
83949
88866
95490
104696
99100
95538
99429
98315
96866
100167
79765
96461
98975
111050
88660
99163
69216
94798
109433
98521
89122
98186
69254
93887
110029
99758
90616
102689
94694
98981
94688
92549
103750
101827
108077
86543
99330
96006
101665
100497
126074
99009
102963
76779
99080
102533
114519
77671
96024
110909
98373
94712
99309
84238
98735
98885
117706
94865
95562
96906
75305
98380
113624
94997
91891
76353
91414
94442
119180
97629
91978
89410
106222
91003
106945
96687
94551
98152
96092
95091
97166
92029
100677
96278
99038
98622
97628
98569
78760
96421
94858
109637
93236
98302
94679
97577
94207
96039
98629
93162
97578
90877
89045
91469
89107
90233
90425
97146
95626
72249
91458
97012
99396
99804
97923
98762
97623
113425
92655
95714
98117
91575
92090
97374
95960
86948
90367
75732
72937
110879
93696
107007
89372
93879
72483
100112
110706
84698
88594
73768
117752
103835
113846
82574
88572
76645
117955
100823
117899
91077
95387
94800
91056
93396
78403
76572
99142
98398
110881
89278
116018
96747
92674
93135
77646
98000
117517
94216
96629
76675
93707
96514
116397
73758
97862
108295
76580
84728
114776
90460
97582
98234
77172
99850
102966
109683
90962
96239
97113
90039
89459
99549
71725
100050
106805
98888
93609
95012
85215
81121
100508
119667
91686
112784
94962
92706
97674
103710
75741
99286
108852
92546
88161
94484
91365
79272
93048
73744
118738
97254
114577
74642
91984
75525
111738
92534
111860
86228
93675
95110
91224
89807
92075
93533
91410
77365
95164
74475
110412
93647
109097
89989
98608
74370
97159
107108
97956
88661
98536
80510
97745
97155
116550
95340
95760
91872
94261
72652
98444
112972
100809
87592
97782
73232
94822
111415
94972
87236
74095
97192
100854
94237
97920
105443
88477
101737
82350
86759
116406
113394
91915
97781
83443
97154
95661
117436
97674
90308
87320
98722
69127
98647
112062
75971
93260
97667
69947
115758
107234
98166
89565
72336
103114
101987
113952
96722
96778
72342
93306
78905
104283
94346
113904
79998
92057
73878
107825
90029
97381
94566
114600
91870
91569
73535
91466
99418
113969
77921
95102
92552
72489
108787
114158
85554
97957
78505
75683
117150
118256
88788
102373
70607
95101
107625
91328
87878
98583
89387
98736
91490
75592
94371
96060
115660
95543
95059
92131
90305
95849
89496
94396
95233
78275
91637
76170
117419
99899
111017
76658
92865
77285
112425
94911
95401
91020
114197
91413
92865
75909
100471
105367
115661
90131
98921
98601
90385
90492
84768
88909
121041
92948
96692
99552
77342
94162
117308
75281
91036
114366
74463
93515
113568
76036
91400
111859
79332
90603
114660
88423
92054
91810
72115
100574
98605
90724
94143
106803
95981
90393
77868
77446
106381
115047
86008
101038
90480
99303
90433
99549
96428
101436
99413
92448
93994
77100
93218
100357
98629
113444
94106
100450
72850
84575
116605
112433
92830
90933
74706
86802
119046
104245
92475
109025
89450
96763
96340
86337
90439
85904
118796
92781
87626
94266
77968
90700
111437
89205
91474
83580
80727
112715
121858
86597
96521
93368
93408
91599
97750
93366
77178
93828
113467
74924
95116
75343
118677
93516
97860
73583
115816
106419
92528
84209
78798
91345
90815
119061
99017
90597
88071
98606
98570
92485
96766
101897
97804
91363
90925
92665
99956
92038
96289
94245
91916
92708
90714
100920
92966
96735
87500
96517
76743
104185
98989
104255
112660
98764
90888
71639
97424
98402
112515
90617
95954
94989
84999
86937
94689
74800
98292
108754
97917
87031
93589
93172
104614
93256
104104
90253
77103
94847
114428
95146
92845
91645
76745
95818
95919
110698
89524
95912
97540
96931
102428
95101
95774
95855
78321
90229
79963
119024
97801
120834
72661
92593
112976
90763
95422
94683
83896
77468
121622
110779
87504
97717
97184
99256
97812
97364
92456
102208
92612
100430
76120
93896
99935
96814
77783
112093
95728
105577
89029
100463
71265
95696
110472
78137
91169
103988
91880
102322
99460
111280
92860
89209
93531
95142
96182
97910
92685
79082
76052
114805
108905
95094
89702
80104
98778
98311
95894
77505
109225
93584
111827
96097
91632
88561
95999
93142
89315
93636
94943
96111
93469
90887
76879
89447
112172
93307
101010
82272
81005
112189
109243
93527
91128
98766
95620
98070
97224
80942
76306
111788
111712
90182
98574
75953
81635
110530
115036
89671
92965
77731
95545
112953
100682
91016
99158
92245
98943
89832
69245
99279
95513
114481
96064
91665
94683
91170
77713
97774
114727
93339
95306
92838
77866
79439
117368
111960
88808
102776
72753
84561
112418
120671
89950
107069
69404
81862
105398
90311
117783
98757
94987
91123
89600
91827
94233
76128
93750
74248
115016
94081
111572
85387
91734
94932
92566
75351
95513
