Car -1 -1 4.46172 686 142 963 368 1.53581 1.50306 3.23321 1.64128 1.33237 6.53661 4.69597 0.731059
Car -1 -1 1.94754 671 172 724 202 1.68676 1.67679 4.28331 5.36703 1.65364 43.1461 2.07 0.731059
Car -1 -1 4.71512 711 172 783 239 1.4204 1.52673 3.78001 3.30951 1.4195 17.4159 4.89909 0.705785
Car -1 -1 0.301205 567 177 623 199 1.66061 1.6252 3.96142 -1.08461 2.00704 55.3611 0.28125 0.592667
Cyclist -1 -1 1.008 818 166 846 200 1.67677 0.563648 1.6794 11.3486 1.36085 36.8179 1.30438 0.437824
Car -1 -1 -0.011126 484 184 569 215 1.512 1.67679 4.28331 -4.30419 2.14637 37.5619 -0.125 0.437824
Car -1 -1 3.00809 516 181 579 206 1.58457 1.65079 4.0238 -4.10479 2.19272 48.056 2.92284 0.407333
Car -1 -1 3.14029 511 184 573 208 1.56 1.67679 4.08717 -4.55431 2.3916 49.1459 3.04784 0.348645
Car -1 -1 0.171468 343 188 475 235 1.56 1.73001 4.35076 -7.12918 2.15293 26.0418 -0.09375 0.348645
Car -1 -1 3.25596 510 183 564 204 1.53581 1.65079 3.96142 -5.45748 2.35372 55.0951 3.15722 0.348645
Car -1 -1 0.00372082 469 185 561 221 1.60952 1.73001 4.28331 -4.50117 2.24023 34.6808 -0.125 0.348645
Car -1 -1 -0.176348 516 181 574 203 1.60952 1.65079 4.08717 -4.8094 2.24778 53.7501 -0.265625 0.320821
Car -1 -1 -0.799699 1175 81 1242 375 1.60952 1.65079 4.41928 6.12965 1.24688 4.03285 0.15625 0.320821
Car -1 -1 0.795051 0 0 1242 375 1.58457 1.65079 3.96142 -16.2788 2.36467 0.892124 -0.703125 0.294215
Car -1 -1 5.09338 734 166 772 186 1.56 1.65079 4.0238 11.9517 1.08444 59.7162 5.28972 0.294215
Pedestrian -1 -1 -1.37534 1099 109 1157 247 1.81302 0.537837 0.663223 7.11622 0.975958 9.88952 -0.765625 0.268941
Car -1 -1 3.74751 0 0 676 375 1.48856 1.6252 3.83954 0.497897 1.86931 0.705084 4.19597 0.268941
Car -1 -1 4.91253 570 180 606 206 1.58457 1.57519 4.0238 -1.34837 2.07916 46.9741 4.88347 0.268941
Cyclist -1 -1 2.81963 1069 137 1211 250 1.67677 0.638697 1.6794 8.28872 1.15386 11.3356 3.43847 0.268941
Car -1 -1 2.38141 760 180 820 202 1.53581 1.70319 4.28331 13.3076 2.10835 52.919 2.62597 0.268941
Cyclist -1 -1 4.32862 686 139 863 375 1.73 0.628795 1.84446 1.16389 1.51932 5.51463 4.52409 0.268941
Car -1 -1 5.04916 593 180 634 205 1.512 1.52673 3.78001 0.317264 2.04897 46.9082 5.05534 0.245085
Car -1 -1 4.68241 550 181 576 206 1.512 1.6 4.15153 -3.07969 2.11799 47.7459 4.61784 0.245085
Car -1 -1 0.017983 414 183 523 224 1.60952 1.73001 4.35076 -5.84954 2.06209 30.2686 -0.171875 0.245085
Car -1 -1 1.86962 657 165 693 190 1.97202 1.73001 4.41928 5.36618 1.39394 58.2934 1.96063 0.245085
Car -1 -1 1.94707 701 182 742 204 1.46548 1.57519 3.9 7.99935 2.15796 50.9996 2.10125 0.2227
Pedestrian -1 -1 0.211723 1194 123 1242 280 1.75724 0.513207 0.576218 7.29031 1.20153 8.45079 0.90625 0.2227
Car -1 -1 0.0760037 457 186 556 221 1.56 1.73001 4.41928 -4.68996 2.20546 33.5328 -0.0625 0.2227
Car -1 -1 1.72626 806 167 831 184 1.512 1.6252 4.0238 19.3129 1.07797 66.5008 2.0075 0.2227
Car -1 -1 3.22955 272 187 425 243 1.53581 1.70319 4.21691 -7.77128 2.00664 21.8833 2.89159 0.2227
Cyclist -1 -1 5.41482 0 135 108 289 1.78492 0.563648 1.70585 -7.30318 1.35048 9.21331 4.75847 0.201813
Car -1 -1 3.54841 0 187 166 266 1.71332 1.67679 3.9 -13.1362 2.0802 17.3377 2.90722 0.201813
Car -1 -1 -0.041714 611 184 669 207 1.44276 1.6252 3.78001 2.05141 2.25315 48.1857 0 0.201813
Car -1 -1 5.12803 625 182 669 207 1.512 1.52673 3.83954 2.55895 2.18353 48.0546 5.18034 0.201813
Car -1 -1 1.98333 0 0 1242 375 1.66061 1.70319 4.41928 6.3114 1.55197 0.641165 3.40722 0.201813
Cyclist -1 -1 4.4775 890 157 936 239 1.75724 0.554909 1.73271 6.8083 1.42301 16.2206 4.86784 0.201813
Car -1 -1 3.96067 882 155 968 190 1.48856 1.57519 3.55099 14.1851 0.7659 32.5834 4.36784 0.201813
Car -1 -1 0.147372 495 185 575 215 1.53581 1.67679 4.08717 -3.92646 2.24147 38.9067 0.046875 0.201813
Cyclist -1 -1 -0.303089 696 121 993 355 1.62518 0.669348 1.99434 1.68506 1.27066 5.37182 -0.015625 0.182426
Car -1 -1 0.156062 388 189 504 231 1.56 1.67679 4.28331 -6.42195 2.24672 28.7326 -0.0625 0.182426
Car -1 -1 3.05979 518 184 571 205 1.58457 1.67679 3.96142 -5.06984 2.50729 56.1852 2.96972 0.182426
Car -1 -1 -1.89399 0 0 1242 375 1.48856 1.6252 4.21691 19.1225 1.66308 -0.200648 -0.328125 0.182426
Car -1 -1 1.18545 0 0 1242 375 1.58457 1.65079 3.96142 -15.4439 2.12575 -0.131498 -0.375 0.164516
Car -1 -1 1.94452 610 181 654 206 1.512 1.55077 3.9 1.53216 2.11181 47.152 1.97625 0.164516
Cyclist -1 -1 4.35718 904 137 973 241 1.75724 0.563648 1.73271 5.9322 1.15614 13.0815 4.77409 0.164516
Car -1 -1 2.3939 637 170 691 192 1.71332 1.6252 4.21691 4.34117 1.50126 56.5793 2.46972 0.148047
Car -1 -1 3.46329 0 187 117 280 1.76771 1.70319 4.08717 -13.3336 2.11644 15.6714 2.76659 0.148047
Car -1 -1 2.09843 0 0 1242 375 1.60952 1.65079 4.08717 4.73148 1.69203 0.89422 3.42284 0.148047
Car -1 -1 -0.781584 821 179 866 196 1.4204 1.6252 3.83954 21.1959 2.04633 65.1443 -0.46875 0.148047
Car -1 -1 4.84238 819 171 859 203 1.60952 1.6252 3.55099 12.2739 1.54121 38.4019 5.14909 0.148047
Car -1 -1 2.32796 630 168 680 193 1.94145 1.70319 4.15153 3.76847 1.61707 58.4984 2.39159 0.148047
Car -1 -1 2.28465 717 181 796 212 1.48856 1.67679 4.28331 7.81699 1.98692 38.0124 2.48534 0.148047
Car -1 -1 4.55451 549 180 582 203 1.48856 1.65079 4.28331 -3.14567 2.06866 51.0783 4.49284 0.148047
Car -1 -1 -1.38361 0 0 1242 375 1.53581 1.6252 3.96142 7.72331 1.56743 0.188915 0.125 0.132964
Car -1 -1 3.4171 362 187 490 230 1.53581 1.73001 4.41928 -6.87538 2.10347 27.3882 3.17284 0.132964
Car -1 -1 2.12242 691 173 747 198 1.512 1.65079 4.08717 7.03253 1.57729 45.8856 2.27313 0.132964
Car -1 -1 -0.255562 0 0 1242 375 1.46548 1.65079 3.9 20.2692 1.4978 0.243234 1.28875 0.132964
Car -1 -1 3.10687 458 186 560 223 1.53581 1.70319 4.41928 -4.50207 2.18066 32.5071 2.96972 0.132964
Pedestrian -1 -1 4.78569 796 179 823 201 1.48856 1.57519 4.15153 14.5208 2.01509 52.1479 5.05534 0.132964
Car -1 -1 2.89652 723 178 813 208 1.58457 1.73001 4.55956 8.72991 1.92209 39.8013 3.11034 0.132964
Car -1 -1 4.7755 550 184 575 207 1.512 1.6252 4.28331 -3.39581 2.42253 53.2396 4.71159 0.132964
Cyclist -1 -1 4.03162 993 145 1082 247 1.81302 0.563648 1.6025 8.08707 1.32984 13.6906 4.55534 0.132964
Car -1 -1 3.43438 536 182 598 204 1.4204 1.6 3.96142 -2.89123 2.11395 49.6001 3.37597 0.132964
Car -1 -1 4.36588 1007 136 1115 194 1.58457 1.6252 3.66371 13.6077 0.587067 21.959 4.91472 0.132964
Car -1 -1 3.18025 314 177 465 229 1.56 1.70319 4.41928 -6.87084 1.70307 22.9122 2.89159 0.119203
Car -1 -1 3.82863 834 162 922 197 1.60952 1.6252 3.96142 13.2953 1.13863 35.9023 4.18034 0.119203
Cyclist -1 -1 4.04583 1033 144 1147 258 1.73 0.563648 1.76 7.79555 1.29867 11.7995 4.61784 0.119203
Car -1 -1 -0.615846 825 177 873 195 1.53581 1.6252 3.78001 21.1946 1.94373 63.7994 -0.296875 0.119203
Pedestrian -1 -1 1.74934 793 179 833 207 1.48856 1.55077 4.15153 12.0242 1.91557 42.4359 2.02313 0.119203
Car -1 -1 2.82824 874 154 976 188 1.512 1.6252 3.96142 14.3726 0.682764 33.0267 3.23534 0.119203
Car -1 -1 3.25973 475 182 569 213 1.512 1.70319 4.41928 -4.24964 1.98016 35.7094 3.14159 0.119203
Car -1 -1 2.3177 722 180 789 206 1.46548 1.65079 4.15153 9.02231 1.95572 44.347 2.51659 0.119203
Car -1 -1 4.47209 561 182 599 206 1.46548 1.6 3.96142 -1.98745 2.15818 47.9242 4.43034 0.106691
Car -1 -1 4.3921 836 169 892 202 1.60952 1.65079 3.66371 12.9786 1.4452 36.9251 4.72722 0.106691
Car -1 -1 1.27561 0 0 1242 375 1.512 1.6252 4.35076 16.7479 1.4067 -0.263282 2.84472 0.106691
Car -1 -1 3.27452 434 185 540 222 1.512 1.70319 4.35076 -5.20908 2.09041 31.294 3.11034 0.106691
Car -1 -1 3.46754 733 166 788 186 1.53581 1.65079 4.08717 12.2054 1.05433 58.2481 3.67284 0.106691
Pedestrian -1 -1 2.63018 593 166 607 199 1.81302 0.572524 0.603872 -0.523774 1.48475 40.4983 2.61688 0.106691
Cyclist -1 -1 4.1889 1233 122 1242 240 1.73 0.505251 1.78772 10.7596 0.993394 11.4529 4.93034 0.106691
Car -1 -1 2.48897 711 183 778 206 1.48856 1.70319 4.28331 9.09132 2.20433 48.4387 2.67284 0.106691
Car -1 -1 2.65923 702 183 766 205 1.46548 1.65079 4.0238 8.57388 2.20966 49.5306 2.82909 0.106691
Car -1 -1 1.36655 801 180 840 205 1.4204 1.6252 3.83954 13.305 1.94996 45.6168 1.64813 0.0953495
