Car -1 -1 4.67049 569 178 623 228 1.56 1.67679 4.35076 -0.5259 1.782 25.2158 4.64909 0.904651
Car -1 -1 3.93503 1173 148 1242 246 1.46548 1.65079 4.21691 12.5861 1.10201 12.9181 4.69597 0.851953
Car -1 -1 4.65775 544 173 572 198 1.63487 1.67679 3.83954 -3.47007 1.68161 48.7013 4.58659 0.731059
Car -1 -1 3.00995 368 184 418 201 1.46548 1.67679 4.0238 -19.1313 2.48159 63.8691 2.71972 0.437824
Car -1 -1 4.3353 0 0 1242 375 1.60952 1.6252 3.83954 -16.3473 2.12743 0.254584 2.79784 0.437824
Car -1 -1 0.0414585 35 187 111 211 1.48856 1.67679 4.08717 -36.6016 2.5509 49.4059 -0.59375 0.437824
Car -1 -1 1.64977 574 178 596 197 1.58457 1.57519 3.83954 -1.98712 2.0367 60.9237 1.61688 0.407333
Cyclist -1 -1 3.10678 0 0 1242 375 1.75724 0.474639 1.96342 13.8676 0.643907 0.546196 4.61784 0.377541
Car -1 -1 2.76975 526 182 574 200 1.44276 1.6252 3.83954 -5.11827 2.31213 62.9076 2.68847 0.348645
Car -1 -1 5.5003 358 184 404 202 1.512 1.57519 4.0238 -20.6071 2.63417 65.4208 5.19597 0.320821
Car -1 -1 2.51818 696 180 749 199 1.48856 1.6252 4.08717 9.23248 2.09117 58.7463 2.67284 0.320821
Car -1 -1 2.00804 329 181 368 201 1.48856 1.55077 3.78001 -21.1863 2.24323 58.8742 1.66375 0.320821
Car -1 -1 4.20352 0 0 1242 375 1.63487 1.70319 4.35076 -34.2076 2.5081 1.08311 2.67284 0.320821
Car -1 -1 1.76192 826 175 879 210 1.46548 1.57519 3.9 11.1254 1.59353 32.811 2.08563 0.320821
Car -1 -1 2.85848 552 180 602 199 1.512 1.6252 3.96142 -2.75724 2.18587 61.5624 2.81347 0.320821
Car -1 -1 3.08239 168 185 223 203 1.512 1.67679 4.08717 -36.4669 2.66098 63.6172 2.56347 0.294215
Car -1 -1 3.0983 361 181 409 200 1.58457 1.67679 3.9 -19.4527 2.36052 62.5904 2.79784 0.294215
Car -1 -1 2.39592 0 188 71 212 1.48856 1.55077 3.9 -38.1453 2.55176 47.9285 1.72625 0.294215
Car -1 -1 3.14308 154 185 209 204 1.512 1.65079 4.0238 -36.6651 2.62129 61.9517 2.61034 0.268941
Car -1 -1 0.791188 0 191 47 218 1.46548 1.67679 4.15153 -34.9082 2.53535 41.4052 0.09375 0.268941
Car -1 -1 2.43912 367 189 440 217 1.58457 1.67679 4.48887 -13.1822 2.73523 46.4711 2.16375 0.268941
Car -1 -1 3.11506 431 182 482 201 1.60952 1.70319 4.21691 -13.2018 2.45183 62.4562 2.90722 0.268941
Car -1 -1 2.47294 321 187 383 211 1.512 1.57519 3.9 -17.7294 2.58722 49.8435 2.1325 0.268941
Car -1 -1 3.03121 350 182 401 202 1.56 1.65079 3.9 -19.4529 2.3722 60.2184 2.71972 0.268941
Car -1 -1 1.9464 522 182 557 201 1.48856 1.57519 3.96142 -5.82455 2.29864 61.0443 1.85125 0.268941
Car -1 -1 0.758769 0 191 32 219 1.46548 1.70319 4.28331 -34.8424 2.54565 40.125 0.046875 0.245085
Car -1 -1 3.74627 439 186 489 204 1.48856 1.67679 4.15153 -12.9446 2.72429 64.251 3.54784 0.245085
Car -1 -1 4.14383 0 0 1242 375 1.58457 1.6252 3.72141 -14.607 2.04781 0.255008 2.61034 0.245085
Car -1 -1 2.69176 0 188 96 284 1.48856 1.52673 3.66371 -12.2358 1.82391 13.8106 1.97625 0.245085
Pedestrian -1 -1 -0.133175 1201 112 1242 331 1.78492 0.537837 0.75153 5.70653 1.29092 6.31949 0.578125 0.245085
Car -1 -1 2.3608 862 174 956 206 1.44276 1.65079 4.21691 14.3253 1.54159 34.4954 2.75097 0.245085
Car -1 -1 1.27243 866 172 931 209 1.58457 1.6252 4.15153 13.4881 1.59027 33.855 1.64813 0.2227
Car -1 -1 1.01519 0 187 53 215 1.53581 1.70319 4.15153 -35.2291 2.44104 42.6863 0.328125 0.2227
Car -1 -1 0.789408 0 191 14 219 1.44276 1.67679 4.21691 -34.7775 2.47148 38.8457 0.0625 0.2227
Car -1 -1 2.96724 572 183 628 202 1.4204 1.65079 4.08717 -0.705455 2.25052 55.5468 2.95409 0.2227
Car -1 -1 3.35341 543 177 595 195 1.48856 1.67679 4.21691 -3.47535 1.90064 62.6573 3.29784 0.2227
Car -1 -1 2.913 0 0 1242 375 1.48856 1.57519 3.72141 -31.7584 1.82829 1.49419 1.39813 0.2227
Pedestrian -1 -1 1.54536 987 127 1028 236 1.81302 0.58154 0.825395 6.87554 1.05965 12.4801 2.03875 0.2227
Car -1 -1 3.14098 50 186 122 208 1.46548 1.65079 4.08717 -36.9319 2.4377 51.0072 2.51659 0.2227
Car -1 -1 4.6967 577 175 596 194 1.58457 1.70319 4.41928 -2.05441 1.85767 64.7186 4.66472 0.2227
Car -1 -1 4.20419 15 187 86 214 1.56 1.70319 4.21691 -35.0964 2.50355 45.3116 3.54784 0.201813
Car -1 -1 -0.817602 908 179 1001 212 1.4204 1.6252 3.9 15.8705 1.71939 33.1472 -0.375 0.201813
Car -1 -1 2.37116 78 187 303 283 1.48856 1.47976 3.66371 -7.68996 1.79888 13.6781 1.86688 0.201813
Car -1 -1 1.46981 786 161 814 187 1.82382 1.67679 3.96142 14.2565 1.03499 54.0217 1.72625 0.201813
Cyclist -1 -1 -0.0396618 544 172 574 198 1.73 0.563648 1.90301 -3.2805 1.67548 47.0001 -0.109375 0.201813
Car -1 -1 -0.291515 830 175 929 208 1.512 1.6252 4.08717 12.783 1.66297 34.2403 0.0625 0.201813
Car -1 -1 2.51467 0 186 251 283 1.48856 1.47976 3.83954 -8.97013 1.78872 13.7443 1.945 0.201813
Car -1 -1 2.55663 0 187 195 283 1.48856 1.52673 3.9 -10.25 1.80362 13.8762 1.92938 0.201813
Car -1 -1 1.23654 894 174 965 210 1.53581 1.67679 4.15153 14.646 1.6201 33.2144 1.64813 0.182426
Car -1 -1 2.81943 0 191 37 286 1.46548 1.55077 3.72141 -13.5812 1.87603 13.8762 2.05438 0.182426
Car -1 -1 4.4617 822 158 868 189 1.88172 1.70319 4.08717 14.5751 1.01292 44.7979 4.77409 0.182426
Car -1 -1 4.55708 585 179 610 199 1.53581 1.55077 3.66371 -1.026 2.143 60.4048 4.53972 0.182426
Pedestrian -1 -1 1.26491 1017 131 1045 190 1.92995 0.658971 0.652941 14.1854 0.569286 24.2616 1.78875 0.182426
Car -1 -1 2.33379 520 184 564 202 1.48856 1.6 3.96142 -5.88716 2.57326 63.9309 2.24188 0.182426
Car -1 -1 4.86819 0 184 34 209 1.48856 1.6 3.9 -39.4937 2.32098 47.8089 4.18034 0.182426
Car -1 -1 1.38277 790 162 824 188 1.85255 1.67679 3.96142 14.3229 1.10436 52.3551 1.64813 0.182426
Car -1 -1 3.08447 708 169 755 186 1.48856 1.6252 4.0238 10.673 1.17087 63.1134 3.25097 0.182426
Car -1 -1 0.25859 722 171 783 193 1.68676 1.67679 4.41928 11.3642 1.61606 57.2731 0.453125 0.182426
Car -1 -1 4.58815 596 182 621 202 1.512 1.57519 4.08717 -0.0636403 2.3633 60.2705 4.58659 0.182426
Car -1 -1 1.98388 282 190 325 212 1.48856 1.6 3.66371 -22.2729 2.79985 52.7225 1.58563 0.182426
Car -1 -1 4.46157 0 0 1242 375 1.48856 1.6252 3.83954 -33.1773 2.04978 0.259347 2.90722 0.182426
Car -1 -1 1.75155 460 185 492 207 1.66061 1.75726 4.48887 -10.8184 2.70672 58.8198 1.57 0.182426
Car -1 -1 1.29265 827 175 885 208 1.44276 1.55077 3.9 11.5114 1.5895 33.9027 1.61688 0.182426
Car -1 -1 0.996397 0 189 75 215 1.46548 1.70319 4.28331 -34.9084 2.48899 43.9658 0.328125 0.164516
Car -1 -1 4.36338 0 0 1242 375 1.512 1.6252 4.0238 -30.4012 2.02813 -0.126966 2.79784 0.164516
Car -1 -1 4.73517 777 164 799 185 1.66061 1.65079 3.96142 14.5767 0.998793 58.6906 4.97722 0.164516
Car -1 -1 4.7435 587 172 607 190 1.512 1.65079 4.0238 -1.03213 1.51534 64.4585 4.72722 0.164516
Car -1 -1 3.1526 559 181 621 205 1.68676 1.75726 4.48887 -1.37276 2.35731 52.3456 3.12597 0.164516
Car -1 -1 1.59811 463 184 485 206 1.71332 1.67679 4.41928 -11.392 2.73729 60.9752 1.41375 0.164516
Car -1 -1 1.76178 275 189 311 211 1.44276 1.6252 3.66371 -22.463 2.64312 51.3876 1.35125 0.164516
Car -1 -1 0.627972 852 173 951 210 1.56 1.6252 3.96142 13.2338 1.59442 32.8384 1.0075 0.164516
Car -1 -1 2.64058 320 189 390 215 1.56 1.6 4.21691 -16.9566 2.70899 48.3171 2.30438 0.164516
Pedestrian -1 -1 2.57396 354 158 377 204 1.90003 0.723738 0.623041 -10.0807 1.30195 29.8794 2.25097 0.164516
Car -1 -1 2.35418 466 185 519 206 1.58457 1.67679 4.35076 -9.53849 2.68486 59.328 2.195 0.164516
Car -1 -1 -0.200187 347 187 399 205 1.48856 1.67679 4.08717 -20.7377 2.77291 63.3582 -0.515625 0.148047
Car -1 -1 4.39281 0 0 1242 375 1.56 1.6252 4.08717 -13.2728 1.82171 -0.1947 2.82909 0.148047
Car -1 -1 3.3121 255 197 313 221 1.60952 1.6252 3.72141 -24.1852 3.52639 53.873 2.89159 0.148047
Car -1 -1 1.92723 320 189 357 207 1.4204 1.6252 3.78001 -22.5259 2.82168 60.1486 1.57 0.148047
Car -1 -1 0.78266 432 185 487 207 1.68676 1.73001 4.35076 -12.0421 2.6989 57.9166 0.578125 0.148047
Car -1 -1 1.59406 603 183 625 203 1.48856 1.65079 4.35076 0.444289 2.36378 57.2865 1.60125 0.148047
Car -1 -1 2.26581 346 187 390 206 1.56 1.65079 4.0238 -21.8839 2.94244 65.672 1.945 0.148047
Pedestrian -1 -1 1.32258 726 160 742 196 1.78492 0.619046 0.8 6.23984 1.19136 36.1289 1.49188 0.148047
Car -1 -1 1.94644 474 187 513 208 1.56 1.6252 4.08717 -9.15218 2.74661 57.473 1.78875 0.148047
Car -1 -1 3.07089 76 184 147 206 1.48856 1.70319 4.21691 -36.7345 2.39813 53.3136 2.46972 0.148047
Car -1 -1 1.21144 48 187 106 212 1.53581 1.70319 4.21691 -35.0957 2.53923 47.5514 0.578125 0.132964
Pedestrian -1 -1 2.25429 484 183 533 203 1.512 1.6 4.35076 -8.06393 2.40221 58.2388 2.11688 0.132964
Car -1 -1 3.03131 563 172 612 189 1.44276 1.6 4.15153 -1.88065 1.39442 62.3422 3.00097 0.132964
Car -1 -1 4.67451 0 0 1242 375 1.56 1.65079 4.28331 -24.1333 1.96153 -0.127741 3.11034 0.132964
Car -1 -1 -0.244309 298 189 365 212 1.44276 1.65079 4.15153 -19.6483 2.68454 51.1982 -0.609375 0.132964
Car -1 -1 0.541291 258 193 319 215 1.58457 1.6 3.83954 -23.5497 3.10854 53.0489 0.125 0.132964
Car -1 -1 3.2006 315 192 364 212 1.58457 1.6252 3.9 -23.3579 3.32872 62.6471 2.84472 0.132964
Car -1 -1 1.82574 110 194 176 231 1.53581 1.65079 3.96142 -22.1453 2.63099 34.436 1.2575 0.132964
Car -1 -1 1.93227 624 182 658 201 1.60952 1.67679 4.28331 2.87496 2.49624 64.2969 1.97625 0.132964
Pedestrian -1 -1 3.21013 959 173 999 284 1.70318 0.554909 0.541307 5.85969 1.70726 11.4198 3.67284 0.132964
Car -1 -1 2.60868 822 173 922 206 1.46548 1.65079 4.08717 12.0754 1.51459 33.2161 2.95409 0.132964
