22:19:30 INFO  : Launching XSCT server: xsct -n  -interactive /home/uho/workspace/Vitis-AI/dsa/DPU-TRD/temp_xsdb_launch_script.tcl
22:19:31 INFO  : Registering command handlers for Vitis TCF services
22:19:34 INFO  : Platform repository initialization has completed.
22:19:35 INFO  : XSCT server has started successfully.
22:19:35 INFO  : plnx-install-location is set to ''
22:19:36 INFO  : Successfully done setting XSCT server connection channel  
22:19:36 INFO  : Successfully done query RDI_DATADIR 
22:19:36 INFO  : Successfully done setting workspace for the tool. 
00:33:43 INFO  : Launching XSCT server: xsct -n  -interactive /home/uho/workspace/Vitis-AI/dsa/DPU-TRD/temp_xsdb_launch_script.tcl
00:33:43 INFO  : Registering command handlers for Vitis TCF services
00:33:48 INFO  : Platform repository initialization has completed.
00:33:50 INFO  : XSCT server has started successfully.
00:33:50 INFO  : plnx-install-location is set to ''
00:33:50 INFO  : Successfully done setting XSCT server connection channel  
00:33:50 INFO  : Successfully done query RDI_DATADIR 
00:33:50 INFO  : Successfully done setting workspace for the tool. 
23:24:34 INFO  : Launching XSCT server: xsct -n  -interactive /home/uho/workspace/Vitis-AI/dsa/DPU-TRD/temp_xsdb_launch_script.tcl
23:24:34 INFO  : Registering command handlers for Vitis TCF services
23:24:37 INFO  : Platform repository initialization has completed.
23:24:39 INFO  : XSCT server has started successfully.
23:24:39 INFO  : Successfully done setting XSCT server connection channel  
23:24:39 INFO  : plnx-install-location is set to ''
23:24:40 INFO  : Successfully done setting workspace for the tool. 
23:24:40 INFO  : Successfully done query RDI_DATADIR 
18:11:22 INFO  : Launching XSCT server: xsct -n  -interactive /home/uho/workspace/Vitis-AI/dsa/DPU-TRD/temp_xsdb_launch_script.tcl
18:11:22 INFO  : Registering command handlers for Vitis TCF services
18:11:26 INFO  : Platform repository initialization has completed.
18:11:29 INFO  : XSCT server has started successfully.
18:11:30 INFO  : plnx-install-location is set to ''
18:11:30 INFO  : Successfully done setting XSCT server connection channel  
18:11:30 INFO  : Successfully done query RDI_DATADIR 
18:11:30 INFO  : Successfully done setting workspace for the tool. 
11:19:35 INFO  : Launching XSCT server: xsct -n  -interactive /home/uho/workspace/Vitis-AI/dsa/DPU-TRD/temp_xsdb_launch_script.tcl
11:19:38 INFO  : Registering command handlers for Vitis TCF services
11:19:39 INFO  : XSCT server has started successfully.
11:19:40 INFO  : Platform repository initialization has completed.
11:19:41 INFO  : Successfully done setting XSCT server connection channel  
11:19:41 INFO  : plnx-install-location is set to ''
11:19:41 INFO  : Successfully done query RDI_DATADIR 
11:19:41 INFO  : Successfully done setting workspace for the tool. 
11:21:46 INFO  : Result from executing command 'getProjects': DPU_2core_B4096
11:21:46 INFO  : Result from executing command 'getPlatforms': xilinx_zcu102_base_202020_1|/home/uho/downloaded/xilinx_zcu102_base_202020_1/xilinx_zcu102_base_202020_1.xpfm;xilinx_zcu102_base_202020_1|/home/uho/downloaded/xilinx_zcu102_base_202020_1/xilinx_zcu102_base_202020_1/xilinx_zcu102_base_202020_1.xpfm
11:22:51 ERROR : Failed to create project 'DPU_2core_B4096'
11:41:13 INFO  : Launching XSCT server: xsct -n  -interactive /home/uho/workspace/Vitis-AI/dsa/DPU-TRD/temp_xsdb_launch_script.tcl
11:41:17 INFO  : XSCT server has started successfully.
11:41:17 INFO  : plnx-install-location is set to ''
11:41:17 INFO  : Successfully done setting XSCT server connection channel  
11:41:17 INFO  : Successfully done setting workspace for the tool. 
11:41:17 INFO  : Successfully done query RDI_DATADIR 
11:41:20 INFO  : Registering command handlers for Vitis TCF services
11:41:21 INFO  : Platform repository initialization has completed.
11:41:40 ERROR : (XSDB Server)ERROR: [Hsi 55-1571] The design file /home/uho/workspace/Vitis-AI/dsa/DPU-TRD/DPU_2core_B4096/hw/top_wrapper.xsa is already opened

11:42:41 INFO  : Result from executing command 'getProjects': DPU_2core_B4096
11:42:41 INFO  : Result from executing command 'getPlatforms': DPU_2core_B4096|/home/uho/workspace/Vitis-AI/dsa/DPU-TRD/DPU_2core_B4096/export/DPU_2core_B4096/DPU_2core_B4096.xpfm;xilinx_zcu102_base_202020_1|/home/uho/downloaded/xilinx_zcu102_base_202020_1/xilinx_zcu102_base_202020_1.xpfm;xilinx_zcu102_base_202020_1|/home/uho/downloaded/xilinx_zcu102_base_202020_1/xilinx_zcu102_base_202020_1/xilinx_zcu102_base_202020_1.xpfm
11:55:54 INFO  : Launching XSCT server: xsct -n  -interactive /home/uho/workspace/Vitis-AI/dsa/DPU-TRD/temp_xsdb_launch_script.tcl
11:55:57 INFO  : XSCT server has started successfully.
11:55:57 INFO  : Successfully done setting XSCT server connection channel  
11:55:57 INFO  : plnx-install-location is set to ''
11:55:57 INFO  : Successfully done setting workspace for the tool. 
11:55:57 INFO  : Successfully done query RDI_DATADIR 
11:55:59 INFO  : Platform repository initialization has completed.
11:55:59 INFO  : Registering command handlers for Vitis TCF services
12:04:11 INFO  : Launching XSCT server: xsct -n  -interactive /home/uho/workspace/Vitis-AI/dsa/DPU-TRD/temp_xsdb_launch_script.tcl
12:04:14 INFO  : XSCT server has started successfully.
12:04:14 INFO  : Successfully done setting XSCT server connection channel  
12:04:14 INFO  : plnx-install-location is set to ''
12:04:14 INFO  : Successfully done setting workspace for the tool. 
12:04:15 INFO  : Platform repository initialization has completed.
12:04:16 INFO  : Successfully done query RDI_DATADIR 
12:04:16 INFO  : Registering command handlers for Vitis TCF services
12:05:33 INFO  : Result from executing command 'getProjects': DPU_2core_B4096
12:05:33 INFO  : Result from executing command 'getPlatforms': DPU_2core_B4096|/home/uho/workspace/Vitis-AI/dsa/DPU-TRD/DPU_2core_B4096/export/DPU_2core_B4096/DPU_2core_B4096.xpfm;xilinx_zcu102_base_202020_1|/home/uho/downloaded/xilinx_zcu102_base_202020_1/xilinx_zcu102_base_202020_1.xpfm;xilinx_zcu102_base_202020_1|/home/uho/downloaded/xilinx_zcu102_base_202020_1/xilinx_zcu102_base_202020_1/xilinx_zcu102_base_202020_1.xpfm
12:05:36 INFO  : Checking for BSP changes to sync application flags for project 'Test_DPU_2core_B4096'...
12:09:11 INFO  : Build configuration of 'Test_DPU_2core_B4096_system' is updated to 'Release'
12:09:11 INFO  : Build configuration of system project is automatically updated to 'Release'.
18:31:44 INFO  : Launching XSCT server: xsct -n  -interactive /home/uho/workspace/Vitis-AI/dsa/DPU-TRD/temp_xsdb_launch_script.tcl
18:31:47 INFO  : XSCT server has started successfully.
18:31:47 INFO  : Successfully done setting XSCT server connection channel  
18:31:47 INFO  : plnx-install-location is set to ''
18:31:47 INFO  : Successfully done setting workspace for the tool. 
18:31:49 INFO  : Platform repository initialization has completed.
18:31:53 INFO  : Registering command handlers for Vitis TCF services
18:31:56 INFO  : Successfully done query RDI_DATADIR 
18:39:32 INFO  : Result from executing command 'getProjects': DPU_2core_B4096
18:39:32 INFO  : Result from executing command 'getPlatforms': DPU_2core_B4096|/home/uho/workspace/Vitis-AI/dsa/DPU-TRD/DPU_2core_B4096/export/DPU_2core_B4096/DPU_2core_B4096.xpfm
18:45:59 INFO  : No changes in MSS file content so sources will not be generated.
17:23:48 INFO  : Launching XSCT server: xsct -n  -interactive /home/uho/workspace/Vitis-AI/dsa/DPU-TRD/temp_xsdb_launch_script.tcl
17:23:51 INFO  : XSCT server has started successfully.
17:23:51 INFO  : plnx-install-location is set to ''
17:23:51 INFO  : Successfully done setting XSCT server connection channel  
17:23:51 INFO  : Successfully done setting workspace for the tool. 
17:23:52 INFO  : Successfully done query RDI_DATADIR 
17:23:53 INFO  : Platform repository initialization has completed.
17:23:53 INFO  : Registering command handlers for Vitis TCF services
17:24:43 INFO  : Checking for BSP changes to sync application flags for project 'Test_DPU_2core_B4096'...
17:24:57 ERROR : (XSDB Server)ERROR: [Hsi 55-1571] The design file /home/uho/workspace/Vitis-AI/dsa/DPU-TRD/DPU_2core_B4096/export/DPU_2core_B4096/hw/top_wrapper.xsa is already opened

17:25:28 INFO  : Connected to target on host '127.0.0.1' and port '3121'.
17:25:46 INFO  : ----------------XSDB Script----------------
connect -url tcp:127.0.0.1:3121
----------------End of Script----------------

17:25:46 ERROR : Could not find ARM device on the board for connection 'Local'.
Check if the target is in:
1. Split JTAG - No operations are possible with ARM DAP.
2. Non JTAG bootmode - Bootrom may need time to enable DAP.
Please try again.


Troubleshooting hints:
1. Check whether board is connected to system properly.
2. In case of zynq board, check whether Digilent/Xilinx cable switch settings are correct.
3. If you are using Xilinx Platform Cable USB, ensure that status LED is green.
