Profile Summary
Generated on: 2021-07-06 00:35:03
XRT build version: 2.8.0
Build version branch: 2020.2
Build version hash: f19a872233fbfe2eb933f25fa3d9a780ced774e5
Build version date: 2020-11-15 11:07:38
Target devices: edge

DPU Summary
Kernel Name,Number Of Runs,CU Full Name,Minimum Time (ms),Maximum Time (ms),Average Time (ms),
subgraph_VoxelNet__VoxelNet_PillarFeatureNet_voxel_feature_extractor__PFNLayer_149,2535,DPUCZDX8G:DPUCZDX8G_1,17.281,17.480,24.090,
subgraph_VoxelNet__VoxelNet_RPN_rpn__Conv2d_conv_box__584,2535,DPUCZDX8G:DPUCZDX8G_1,20.719,21.534,27.302,
subgraph_VoxelNet__VoxelNet_PillarFeatureNet_voxel_feature_extractor__PFNLayer_149,2617,DPUCZDX8G:DPUCZDX8G_2,17.282,17.549,24.092,
subgraph_VoxelNet__VoxelNet_RPN_rpn__Conv2d_conv_box__584,2617,DPUCZDX8G:DPUCZDX8G_2,18.717,19.728,26.075,
xir::XrtCu::run,10304,CPU,17.346,19.175,27.351,
vitis::ai::DpuTaskImp::run,10304,CPU,18.129,20.796,29.136,
vitis::ai::ConfigurableDpuTaskImp::run,10304,CPU,18.143,20.824,29.161,

