{
  "options":{
      "runmode": "normal",
      "cmd": "/home/root/workspace/Vitis-AI/demo/Vitis-AI-Library/samples/pointpillars/test_accuracy_pointpillars  pointpillars_kitti_12000_0_pt pointpillars_kitti_12000_1_pt /home/root/workspace/samples/pointpillars/demo_velo.list /home/root/workspace/samples/pointpillars/demo_image.list /home/root/workspace/samples/pointpillars/demo_calib.list result",
      "output": "./trace_pointpillars.xat"
  },
  "trace": {
      "enable_trace_list": ["vitis-ai-library", "vart", "custom"]
  },
      "trace_custom": [
	      "non_max_suppression_cpu"
      ]
}
