Car -1 -1 -1.07806 1216 173 1242 375 1.46548 1.6 3.72141 6.18863 1.47215 4.54811 -0.171875 0.952574
Car -1 -1 4.55802 619 180 695 237 1.512 1.6252 4.08717 1.32753 1.74891 21.5545 4.61784 0.939913
Car -1 -1 2.10434 19 194 186 278 1.74031 1.6 3.9 -12.4275 2.33723 18.0314 1.5075 0.914901
Car -1 -1 3.04803 445 180 499 203 1.68676 1.65079 3.96142 -10.503 2.31257 55.1625 2.86034 0.622459
Car -1 -1 3.27229 440 179 494 202 1.74031 1.67679 3.96142 -11.0208 2.28241 56.1889 3.07909 0.562177
Car -1 -1 -0.15883 333 185 420 215 1.46548 1.67679 4.08717 -12.0978 2.13233 37.5638 -0.46875 0.5
Car -1 -1 4.61421 597 182 628 209 1.512 1.55077 3.28413 0.185835 2.1152 43.7825 4.61784 0.5
Car -1 -1 2.03473 149 185 269 251 1.88172 1.70319 4.15153 -12.8035 2.32193 23.4154 1.53875 0.468791
Car -1 -1 4.59268 614 177 669 221 1.512 1.6 3.83954 1.1393 1.68755 27.1552 4.63347 0.437824
Car -1 -1 2.71337 417 181 488 207 1.63487 1.67679 4.35076 -10.5517 2.24462 48.7629 2.50097 0.437824
Cyclist -1 -1 5.11199 238 184 280 238 1.78492 0.590698 1.96342 -12.1798 2.19035 25.1484 4.66472 0.437824
Car -1 -1 3.50906 488 183 537 199 1.44276 1.6252 4.0238 -8.71251 2.39652 65.0159 3.37597 0.377541
Car -1 -1 0.334133 180 183 262 210 1.60952 1.65079 4.08717 -23.7007 2.27393 44.1537 -0.15625 0.377541
Car -1 -1 4.79222 351 174 412 223 1.46548 1.6 3.72141 -7.43743 1.52548 23.8649 4.49284 0.377541
Car -1 -1 0.403898 222 185 294 208 1.53581 1.70319 4.28331 -25.0436 2.47444 51.5123 -0.046875 0.377541
Car -1 -1 1.63142 359 181 391 207 1.44276 1.55077 3.49594 -13.831 1.94973 42.7523 1.32 0.377541
Car -1 -1 0.369866 60 184 182 223 1.60952 1.65079 4.08717 -21.1436 2.13819 31.4197 -0.21875 0.348645
Car -1 -1 4.36341 0 0 1242 375 1.53581 1.6252 4.08717 -19.8346 2.58917 0.118838 2.81347 0.348645
Car -1 -1 2.0783 0 0 1242 375 1.66061 1.65079 4.0238 1.20403 1.89509 0.318761 3.17284 0.348645
Car -1 -1 0.401698 189 186 272 211 1.512 1.67679 4.28331 -23.6336 2.38143 45.1785 -0.078125 0.348645
Car -1 -1 3.75769 230 184 297 207 1.63487 1.70319 4.21691 -25.2971 2.51702 52.9238 3.31347 0.320821
Car -1 -1 0.0355167 0 178 23 248 1.79555 1.75726 4.48887 -20.036 1.98932 21.058 -0.71875 0.320821
Car -1 -1 -0.109098 289 194 383 227 1.46548 1.67679 4.21691 -13.6274 2.59558 36.0251 -0.46875 0.320821
Car -1 -1 4.06378 41 183 159 224 1.53581 1.67679 4.21691 -20.3832 1.96973 28.927 3.45409 0.294215
Car -1 -1 3.6797 143 185 237 216 1.58457 1.67679 4.15153 -22.6187 2.294 39.033 3.15722 0.294215
Car -1 -1 0.467322 113 188 220 219 1.46548 1.67679 4.21691 -21.782 2.23896 35.6449 -0.078125 0.268941
Car -1 -1 3.61297 216 186 290 209 1.48856 1.67679 4.21691 -24.1408 2.43958 49.0182 3.15722 0.268941
Cyclist -1 -1 5.08626 338 175 404 259 1.75724 0.723738 1.93298 -5.29007 1.82054 16.1611 4.77409 0.268941
Car -1 -1 -0.392356 358 185 442 215 1.46548 1.67679 4.08717 -11.3911 2.19368 39.4831 -0.671875 0.268941
Cyclist -1 -1 3.97444 275 190 359 269 1.62518 0.701471 1.81587 -6.45128 2.03466 15.9263 3.59472 0.268941
Car -1 -1 0.579964 4 189 154 231 1.512 1.70319 4.35076 -19.9297 2.155 27.259 -0.046875 0.268941
Car -1 -1 4.71033 485 167 507 191 1.85255 1.67679 4.0238 -9.03457 1.40664 57.6659 4.55534 0.268941
Pedestrian -1 -1 5.53474 645 197 675 268 1.55076 0.482114 0.477702 1.14241 2.11015 16.2794 5.60222 0.268941
Car -1 -1 3.8482 90 187 202 224 1.58457 1.70319 4.28331 -21.3393 2.2941 33.3382 3.28222 0.245085
Car -1 -1 3.7964 239 182 303 204 1.58457 1.70319 4.21691 -25.365 2.31097 54.206 3.36034 0.245085
Cyclist -1 -1 3.69709 372 181 459 258 1.67677 0.658971 1.87351 -4.4169 1.88255 16.4803 3.43847 0.245085
Car -1 -1 3.91393 163 182 249 211 1.53581 1.67679 4.28331 -22.9402 2.12384 41.0867 3.40722 0.245085
Car -1 -1 3.79558 153 186 246 214 1.512 1.67679 4.35076 -22.6847 2.26845 39.9933 3.28222 0.245085
Pedestrian -1 -1 0.0851704 412 186 445 258 1.59999 0.628795 0.684276 -4.10485 1.92177 16.462 -0.15625 0.245085
Pedestrian -1 -1 4.01747 0 0 1242 375 1.84158 0.554909 0.739879 -4.0762 1.86948 -0.0689852 2.50097 0.245085
Car -1 -1 3.85984 255 182 314 202 1.56 1.70319 4.21691 -26.0043 2.34292 57.7919 3.43847 0.2227
Car -1 -1 3.79194 244 185 307 205 1.512 1.70319 4.28331 -26.0687 2.49985 56.3784 3.36034 0.2227
Car -1 -1 3.14246 392 186 477 216 1.4204 1.67679 4.21691 -9.04762 2.17506 37.5627 2.90722 0.2227
Cyclist -1 -1 5.23366 207 182 259 242 1.81302 0.497418 2.09005 -12.0935 2.12966 23.258 4.75847 0.2227
Car -1 -1 5.58104 309 175 372 197 1.56 1.70319 4.28331 -19.6579 1.76257 52.9962 5.22722 0.2227
Car -1 -1 -0.444452 389 185 469 214 1.512 1.67679 4.21691 -10.486 2.30795 42.1077 -0.6875 0.2227
Car -1 -1 2.47575 320 193 402 225 1.46548 1.6 4.0238 -13.1841 2.64203 38.5847 2.14813 0.2227
Car -1 -1 -0.651433 536 181 584 201 1.63487 1.67679 4.15153 -4.35395 2.46824 64.76 -0.71875 0.2227
Car -1 -1 3.82208 177 187 261 213 1.48856 1.70319 4.21691 -23.0599 2.36196 42.6843 3.32909 0.2227
Car -1 -1 2.99523 429 182 476 199 1.48856 1.6252 3.96142 -14.0123 2.34951 64.6318 2.78222 0.201813
Car -1 -1 0.532323 129 187 231 218 1.512 1.67679 4.21691 -22.0446 2.3054 37.1785 0 0.201813
Car -1 -1 -0.563884 548 185 605 206 1.48856 1.67679 4.21691 -2.55657 2.53417 56.5608 -0.609375 0.201813
Car -1 -1 0.566404 404 189 486 217 1.4204 1.67679 4.08717 -8.84817 2.33327 38.9069 0.34375 0.201813
Car -1 -1 1.76265 404 179 456 216 1.48856 1.55077 3.78001 -7.81948 1.79481 31.8154 1.52313 0.201813
Car -1 -1 3.68831 220 185 292 208 1.512 1.65079 4.21691 -24.47 2.44113 50.0442 3.23534 0.201813
Pedestrian -1 -1 3.22104 447 162 469 219 1.87058 0.609449 0.673668 -5.00568 1.52293 23.9362 3.01659 0.201813
Pedestrian -1 -1 6.04257 215 211 254 293 1.55076 0.554909 0.576218 -7.44897 2.34305 14.3589 5.57097 0.201813
Car -1 -1 4.62125 517 181 539 200 1.53581 1.57519 4.0238 -7.23529 2.36659 63.8582 4.50847 0.201813
Car -1 -1 3.52622 0 194 117 244 1.512 1.67679 4.21691 -19.3545 2.28944 24.3773 2.86034 0.201813
Cyclist -1 -1 1.94242 262 169 281 197 1.73 0.482114 1.73271 -21.2617 1.49856 45.5227 1.5075 0.182426
Car -1 -1 2.96937 567 184 631 207 1.68676 1.73001 4.48887 -0.787297 2.53179 53.3037 2.95409 0.182426
Pedestrian -1 -1 1.01378 435 169 462 222 1.78492 0.554909 0.812598 -5.50328 1.6833 24.7696 0.796875 0.182426
Car -1 -1 2.19315 475 181 539 211 1.48856 1.55077 3.83954 -5.57619 2.00087 39.8038 2.05438 0.182426
Cyclist -1 -1 3.78738 310 162 401 245 1.73 0.658971 1.81587 -5.46822 1.50507 15.5535 3.45409 0.182426
Car -1 -1 5.12857 489 163 530 188 1.91135 1.67679 4.21691 -7.88839 1.20396 57.6112 4.99284 0.182426
Cyclist -1 -1 4.24557 0 0 1242 375 1.50305 0.521289 1.73271 -5.43805 1.79505 -0.130391 2.70409 0.182426
Car -1 -1 3.19705 363 185 422 210 1.63487 1.70319 3.83954 -14.9249 2.54599 49.8526 2.90722 0.182426
Car -1 -1 1.82817 344 186 390 213 1.4204 1.57519 3.72141 -13.8283 2.21715 41.4222 1.5075 0.182426
Car -1 -1 3.80816 0 188 130 233 1.512 1.67679 4.35076 -19.7424 2.08755 25.6596 3.15722 0.182426
Pedestrian -1 -1 -0.842635 626 169 637 194 1.84158 0.6 0.603872 1.65691 1.61662 53.9528 -0.8125 0.182426
Car -1 -1 4.66174 654 162 684 193 1.97202 1.70319 4.0238 3.89569 1.32023 47.4232 4.74284 0.182426
