{
    "options": {
        "runmode": "normal",
        "cmd": "/home/root/workspace/Vitis-AI/demo/Vitis-AI-Library/samples/classification/test_jpeg_classification resnet50 /home/root/workspace/samples/classification/sample_classification.jpg"
    },
    "trace": {
        "enable_trace_list": ["vitis-ai-library","vart", "opencv", "custom"],
        "trace_custom": ["Topk","CPUCalcSoftmax"]
    }
}
